*** Life<ConwayCell> 20x20 ***

Generation = 0, Population = 12.
*...................
.*..................
.....*..............
....*.....*.........
..*.................
.....**.............
...*................
....................
....................
..*.................
...*................
............*.......
....................
....................
....................
....................
....................
....................
....................
....................

Generation = 1, Population = 1.
....................
....................
....................
....................
.....*..............
....................
....................
....................
....................
....................
....................
....................
....................
....................
....................
....................
....................
....................
....................
....................

Generation = 2, Population = 0.
....................
....................
....................
....................
....................
....................
....................
....................
....................
....................
....................
....................
....................
....................
....................
....................
....................
....................
....................
....................

Generation = 3, Population = 0.
....................
....................
....................
....................
....................
....................
....................
....................
....................
....................
....................
....................
....................
....................
....................
....................
....................
....................
....................
....................

Generation = 4, Population = 0.
....................
....................
....................
....................
....................
....................
....................
....................
....................
....................
....................
....................
....................
....................
....................
....................
....................
....................
....................
....................

Generation = 5, Population = 0.
....................
....................
....................
....................
....................
....................
....................
....................
....................
....................
....................
....................
....................
....................
....................
....................
....................
....................
....................
....................

*** Life<ConwayCell> 10x10 ***

Generation = 0, Population = 36.
**********
*........*
*........*
*........*
*........*
*........*
*........*
*........*
*........*
**********

Generation = 1, Population = 60.
**********
*.******.*
**......**
**......**
**......**
**......**
**......**
**......**
*.******.*
**********

Generation = 2, Population = 20.
*........*
..........
...****...
..*....*..
..*....*..
..*....*..
..*....*..
...****...
..........
*........*

Generation = 3, Population = 32.
..........
....**....
...****...
..*.**.*..
.***..***.
.***..***.
..*.**.*..
...****...
....**....
..........

Generation = 4, Population = 8.
..........
...*..*...
..........
.*......*.
..........
..........
.*......*.
..........
...*..*...
..........

Generation = 5, Population = 0.
..........
..........
..........
..........
..........
..........
..........
..........
..........
..........

Generation = 6, Population = 0.
..........
..........
..........
..........
..........
..........
..........
..........
..........
..........

Generation = 7, Population = 0.
..........
..........
..........
..........
..........
..........
..........
..........
..........
..........

Generation = 8, Population = 0.
..........
..........
..........
..........
..........
..........
..........
..........
..........
..........

Generation = 9, Population = 0.
..........
..........
..........
..........
..........
..........
..........
..........
..........
..........

Generation = 10, Population = 0.
..........
..........
..........
..........
..........
..........
..........
..........
..........
..........

*** Life<ConwayCell> 2x2 ***

Generation = 0, Population = 4.
**
**

Generation = 1, Population = 4.
**
**

Generation = 2, Population = 4.
**
**

Generation = 3, Population = 4.
**
**

Generation = 4, Population = 4.
**
**

Generation = 5, Population = 4.
**
**

*** Life<ConwayCell> 2x2 ***

Generation = 0, Population = 1.
*.
..

Generation = 1, Population = 0.
..
..

Generation = 2, Population = 0.
..
..

Generation = 3, Population = 0.
..
..

Generation = 4, Population = 0.
..
..

Generation = 5, Population = 0.
..
..

*** Life<ConwayCell> 4x4 ***

Generation = 0, Population = 4.
....
.**.
.**.
....

Generation = 1, Population = 4.
....
.**.
.**.
....

Generation = 2, Population = 4.
....
.**.
.**.
....

Generation = 3, Population = 4.
....
.**.
.**.
....

Generation = 4, Population = 4.
....
.**.
.**.
....

Generation = 5, Population = 4.
....
.**.
.**.
....

*** Life<ConwayCell> 1x1 ***

Generation = 0, Population = 1.
*

Generation = 4, Population = 0.
.

*** Life<ConwayCell> 2x2 ***

Generation = 0, Population = 2.
*.
.*

Generation = 2, Population = 0.
..
..

Generation = 4, Population = 0.
..
..

*** Life<ConwayCell> 3x8 ***

Generation = 0, Population = 5.
......*.
.*...*..
..*..*..

Generation = 1, Population = 2.
........
.....**.
........

Generation = 2, Population = 0.
........
........
........

Generation = 3, Population = 0.
........
........
........

Generation = 4, Population = 0.
........
........
........

Generation = 5, Population = 0.
........
........
........

*** Life<ConwayCell> 8x3 ***

Generation = 0, Population = 5.
...
.*.
..*
...
...
.**
*..
...

Generation = 1, Population = 2.
...
...
...
...
...
.*.
.*.
...

Generation = 2, Population = 0.
...
...
...
...
...
...
...
...

Generation = 3, Population = 0.
...
...
...
...
...
...
...
...

Generation = 4, Population = 0.
...
...
...
...
...
...
...
...

Generation = 5, Population = 0.
...
...
...
...
...
...
...
...

*** Life<ConwayCell> 1x1 ***

Generation = 0, Population = 1.
*

Generation = 1, Population = 0.
.

Generation = 2, Population = 0.
.

Generation = 3, Population = 0.
.

Generation = 4, Population = 0.
.

Generation = 5, Population = 0.
.

*** Life<ConwayCell> 20x20 ***

Generation = 0, Population = 12.
*...................
.*..................
.....*..............
....*.....*.........
..*.................
.....**.............
...*................
....................
....................
..*.................
...*................
............*.......
....................
....................
....................
....................
....................
....................
....................
....................

Generation = 1, Population = 1.
....................
....................
....................
....................
.....*..............
....................
....................
....................
....................
....................
....................
....................
....................
....................
....................
....................
....................
....................
....................
....................

Generation = 2, Population = 0.
....................
....................
....................
....................
....................
....................
....................
....................
....................
....................
....................
....................
....................
....................
....................
....................
....................
....................
....................
....................

Generation = 3, Population = 0.
....................
....................
....................
....................
....................
....................
....................
....................
....................
....................
....................
....................
....................
....................
....................
....................
....................
....................
....................
....................

Generation = 4, Population = 0.
....................
....................
....................
....................
....................
....................
....................
....................
....................
....................
....................
....................
....................
....................
....................
....................
....................
....................
....................
....................

Generation = 5, Population = 0.
....................
....................
....................
....................
....................
....................
....................
....................
....................
....................
....................
....................
....................
....................
....................
....................
....................
....................
....................
....................

*** Life<ConwayCell> 10x10 ***

Generation = 0, Population = 36.
**********
*........*
*........*
*........*
*........*
*........*
*........*
*........*
*........*
**********

Generation = 1, Population = 60.
**********
*.******.*
**......**
**......**
**......**
**......**
**......**
**......**
*.******.*
**********

Generation = 2, Population = 20.
*........*
..........
...****...
..*....*..
..*....*..
..*....*..
..*....*..
...****...
..........
*........*

Generation = 3, Population = 32.
..........
....**....
...****...
..*.**.*..
.***..***.
.***..***.
..*.**.*..
...****...
....**....
..........

Generation = 4, Population = 8.
..........
...*..*...
..........
.*......*.
..........
..........
.*......*.
..........
...*..*...
..........

Generation = 5, Population = 0.
..........
..........
..........
..........
..........
..........
..........
..........
..........
..........

Generation = 6, Population = 0.
..........
..........
..........
..........
..........
..........
..........
..........
..........
..........

Generation = 7, Population = 0.
..........
..........
..........
..........
..........
..........
..........
..........
..........
..........

Generation = 8, Population = 0.
..........
..........
..........
..........
..........
..........
..........
..........
..........
..........

Generation = 9, Population = 0.
..........
..........
..........
..........
..........
..........
..........
..........
..........
..........

Generation = 10, Population = 0.
..........
..........
..........
..........
..........
..........
..........
..........
..........
..........

*** Life<ConwayCell> 2x2 ***

Generation = 0, Population = 4.
**
**

Generation = 1, Population = 4.
**
**

Generation = 2, Population = 4.
**
**

Generation = 3, Population = 4.
**
**

Generation = 4, Population = 4.
**
**

Generation = 5, Population = 4.
**
**

*** Life<ConwayCell> 2x2 ***

Generation = 0, Population = 1.
*.
..

Generation = 1, Population = 0.
..
..

Generation = 2, Population = 0.
..
..

Generation = 3, Population = 0.
..
..

Generation = 4, Population = 0.
..
..

Generation = 5, Population = 0.
..
..

*** Life<ConwayCell> 4x4 ***

Generation = 0, Population = 4.
....
.**.
.**.
....

Generation = 1, Population = 4.
....
.**.
.**.
....

Generation = 2, Population = 4.
....
.**.
.**.
....

Generation = 3, Population = 4.
....
.**.
.**.
....

Generation = 4, Population = 4.
....
.**.
.**.
....

Generation = 5, Population = 4.
....
.**.
.**.
....

*** Life<ConwayCell> 1x1 ***

Generation = 0, Population = 1.
*

Generation = 4, Population = 0.
.

*** Life<ConwayCell> 2x2 ***

Generation = 0, Population = 2.
*.
.*

Generation = 2, Population = 0.
..
..

Generation = 4, Population = 0.
..
..

*** Life<ConwayCell> 3x8 ***

Generation = 0, Population = 5.
......*.
.*...*..
..*..*..

Generation = 1, Population = 2.
........
.....**.
........

Generation = 2, Population = 0.
........
........
........

Generation = 3, Population = 0.
........
........
........

Generation = 4, Population = 0.
........
........
........

Generation = 5, Population = 0.
........
........
........

*** Life<ConwayCell> 8x3 ***

Generation = 0, Population = 5.
...
.*.
..*
...
...
.**
*..
...

Generation = 1, Population = 2.
...
...
...
...
...
.*.
.*.
...

Generation = 2, Population = 0.
...
...
...
...
...
...
...
...

Generation = 3, Population = 0.
...
...
...
...
...
...
...
...

Generation = 4, Population = 0.
...
...
...
...
...
...
...
...

Generation = 5, Population = 0.
...
...
...
...
...
...
...
...

*** Life<ConwayCell> 1x1 ***

Generation = 0, Population = 1.
*

Generation = 1, Population = 0.
.

Generation = 2, Population = 0.
.

Generation = 3, Population = 0.
.

Generation = 4, Population = 0.
.

Generation = 5, Population = 0.
.
