*** Life<Cell> 15x17 ***

Generation = 0, Population = 14.
----------------0
-----------------
-----------------
-----------0-----
------0-----0--0-
------------0-0--
-0-----------0---
-----------------
-----------------
-----------------
----------------0
-----------------
--------0-----0--
0----------------
---0-------------

Generation = 11, Population = 128.
0--10----1*-**-*-
0--10--0-0*1*-.-*
-1*-000-11--.0*.*
*----**-11*-1-**-
*-1-..0-*-.**0**-
*001.-.1.*-....-1
*1--11.00-*-***-1
0--01-01..10**.**
--0*0-1001--..-.1
10-*---0-1..*1-0-
-0----1-1--.*0--1
----.-1-010--0*--
---.....-11*----0
000-..1-*111--1--
--1**1****000-0-0

Generation = 22, Population = 82.
.1..-1...**...-.-
.****.-.1**......
..**.--*.*.-.....
.*-*...**.*..***.
.-.-.*.*......**1
.1........*.**.*.
....*.*..-....*.*
*.11***...*-..***
.-...-.--*0...***
.**..1.-*....-...
.1...-.1..-.*....
.0**......0*-**.-
-..*......**.*.*-
*.*......-**.***.
.-*........**0.--

*** Life<Cell> 15x20 ***

Generation = 0, Population = 35.
-0----------0-0--0--
----0--0-----------0
---0-------0-----000
0----------0--------
0-------0-----------
-------0-0-00-0-----
--------0-----0-----
--------------------
----------------0---
--------------------
---------0----------
--00------0--------0
---0-----------0-0--
--------0----------0
---------------0----

Generation = 12, Population = 127.
0*.*1.11-...11.*.1-.
.-...*.01.0*.0*.....
.1.--.--....**.-*...
.*.-.1...-*...**--*.
*-..-0*0-.1-...*-***
.-...*0*.*1.*-..*-*1
.-0.--.--.**.**00*-0
.-..1-*0-*.*0*.**1**
....-11-*-.*.-*-1.1*
1*1......1-1*..****0
.-1..-.1.1*1**.*-.0-
*.*-..-*0-0.1.*.*-1.
1*------.-..--***.*.
0*..-000-1.-*--1..*.
0*-.0--.*-**0*1.-...

Generation = 24, Population = 64.
.**.....*..**....1-.
.-*....0.....**.....
........*....*.**...
...-.....-...*.**1..
.-.....-...*.*.*....
............***..-..
..-..........*..-..-
.-.........*-.......
......-..1..**......
........**-***..***-
.-.**.****.*.......*
..*....*.....*..**.*
..*..--.*.*.....*..*
......-*1..0*-....*.
-.-.**.*............

Generation = 36, Population = 79.
.**........*...****.
.-*....-..**.......*
.........***........
...-.....1*.........
.-.....-.*.*.**....*
........**...**.*-..
..-......**..**....-
.-.......**..*......
......****..........
......*...-.**.*.**.
.-.....*.*...**.***.
......*..*.*..****..
.....1-..*.***..*...
......*****..1**..*.
-.-....*****....**..

Generation = 48, Population = 54.
.**.....**.**.......
.-*....-....**......
......**.*****......
...-..***...........
.-.....0......*.*.*.
.........*...**..*.*
..-.....***...*.....
.-....**..**..**...*
.....**.........*...
.....**.............
.-..................
.......*..*.........
.....1-**.**........
........**.*........
-.-.................

Generation = 60, Population = 30.
.**.................
.-*....-............
....................
...-.........**...**
.-...........**...**
.....**.............
..-.................
.-..................
....................
..........***.......
.-.......****.......
........**..**......
........**..........
........***.........
-.-.......*.........

Generation = 72, Population = 11.
.**.................
.-*....-............
....................
...-.........**...**
.-...........**...**
....................
..-.................
.-..................
....................
....................
.-..................
....................
....................
....................
-.-.................

*** Life<Cell> 4x18 ***

Generation = 0, Population = 22.
-0-000------0-0---
-0--0---00--00---0
-0---00---------0-
------0--00-00----

Generation = 13, Population = 29.
-**..*..-****...-.
*.**.*..*.....***.
***..*-*...-*.**-*
....-1..-.**....11

Generation = 26, Population = 18.
....*...-.........
...****......**...
..*...*.***..**...
...****...........

Generation = 39, Population = 9.
........-.........
.............**...
.....*.....*..*...
.....*.....***....

Generation = 52, Population = 7.
........-.........
.............**...
...........*..*...
...........***....

Generation = 65, Population = 7.
........-.........
.............**...
...........*..*...
...........***....

Generation = 78, Population = 7.
........-.........
.............**...
...........*..*...
...........***....

Generation = 91, Population = 7.
........-.........
.............**...
...........*..*...
...........***....

*** Life<Cell> 16x18 ***

Generation = 0, Population = 29.
--------0--------0
---0--0-----------
-----------------0
-0--------0-------
------0------0----
------------------
------------------
------00--0-------
0----------0------
---0---0------0--0
------------------
-------0-----0----
----0---0---------
-00----0----------
-0----------------
-0----0----0------

Generation = 13, Population = 109.
0--..0...-*1*11***
.1-...*...*-*1-1--
.*.*.0.-*.-.1**-*1
11-..****.*----1**
-*----1..-**1-**0*
-1*1......*-1*-1*.
1---.-.--.0*..010.
.*..*.......-..-*.
*1...*.-...1*..*-1
-....1.....*..*...
0.-100......1--11.
.-**--.*.....-..-1
*.....-1......*--.
........**.-*.1-.-
--.111.-1000.-*00-
1*...***..1*---**0

Generation = 26, Population = 92.
.1*.*-*.****.***..
..*..***....*.**1.
..**...-.****..*.*
.....**.....**.-.*
.....**.*.***.****
1.....*...*...**..
...**1...*....*.*.
*.****...........*
*.**.*..*......**.
*....1............
.*..****......-...
...*..*......-....
.....*-*.....***..
....*......-.*.*..
-...****-..-.*..*.
....*.....-...**..

Generation = 39, Population = 97.
.....-......***...
.......*....**....
...****.**.....**.
....****..****...*
.....****.*......*
-***...*....**...*
*........*.......*
.....*........**.*
......*......**..*
*...***.*....**.*.
.**.*.**********..
.....**...***.....
.....*..*.......*.
....**.*..*.*.****
-...*...-........*
.....****.***.***.

Generation = 52, Population = 47.
.....-............
..................
.......**.**...*..
......*.....*.***.
......*....*.....*
.......*.**....*.*
........*.......*.
..................
..................
..................
..................
..***...**...*....
*....*.*..**.*..**
.......*.***...*..
-....**.........**
.****.............

Generation = 65, Population = 27.
.....-....*.......
........***.......
.......*.*****....
......**...*...*..
.......***..*..*..
........**...*.*..
..................
..................
..................
..................
..................
..................
..................
..................
......**..........
......**..........

*** Life<Cell> 4x6 ***

Generation = 0, Population = 18.
00000-
0-0000
00000-
0-0--0

Generation = 9, Population = 7.
--...-
1-**1.
*...-.
*-..*.

Generation = 18, Population = 7.
1..*.-
....*.
.*.**.
...*..

Generation = 27, Population = 0.
-....-
......
......
......

Generation = 36, Population = 0.
-....-
......
......
......

Generation = 45, Population = 0.
-....-
......
......
......

Generation = 54, Population = 0.
-....-
......
......
......

Generation = 63, Population = 0.
-....-
......
......
......

Generation = 72, Population = 0.
-....-
......
......
......

Generation = 81, Population = 0.
-....-
......
......
......

Generation = 90, Population = 0.
-....-
......
......
......

*** Life<Cell> 1x17 ***

Generation = 0, Population = 8.
----00-0-00-0--00

Generation = 3, Population = 10.
-01*-.1-1**--*01.

Generation = 6, Population = 6.
***.-.1-...**.-..

Generation = 9, Population = 1.
....-.-0......-..

Generation = 12, Population = 1.
....-.1-......-..

Generation = 15, Population = 1.
....-.-0......-..

Generation = 18, Population = 1.
....-.1-......-..

Generation = 21, Population = 1.
....-.-0......-..

Generation = 24, Population = 1.
....-.1-......-..

Generation = 27, Population = 1.
....-.-0......-..

Generation = 30, Population = 1.
....-.1-......-..

Generation = 33, Population = 1.
....-.-0......-..

Generation = 36, Population = 1.
....-.1-......-..

Generation = 39, Population = 1.
....-.-0......-..

Generation = 42, Population = 1.
....-.1-......-..

Generation = 45, Population = 1.
....-.-0......-..

Generation = 48, Population = 1.
....-.1-......-..

Generation = 51, Population = 1.
....-.-0......-..

Generation = 54, Population = 1.
....-.1-......-..

Generation = 57, Population = 1.
....-.-0......-..

Generation = 60, Population = 1.
....-.1-......-..

Generation = 63, Population = 1.
....-.-0......-..

Generation = 66, Population = 1.
....-.1-......-..

Generation = 69, Population = 1.
....-.-0......-..

Generation = 72, Population = 1.
....-.1-......-..

Generation = 75, Population = 1.
....-.-0......-..

Generation = 78, Population = 1.
....-.1-......-..

Generation = 81, Population = 1.
....-.-0......-..

*** Life<Cell> 11x15 ***

Generation = 0, Population = 8.
--------0------
-------------0-
---------------
-----0-----0---
------0--------
----------0---0
---------------
---------------
--------0------
---------------
---------------

Generation = 6, Population = 53.
--0-------1-0-1
-0------0*.1--0
--0-0----1--0--
---0-0101..000-
0---0----0.-1--
-0--01-1-1.-.--
--0-0-1---1-1--
---0--00-0--0--
--0-0-0---*---1
-----0--1--1--0
----0---0-1-0--

Generation = 12, Population = 65.
0-0----*-----*.
-00----...**11*
0-11-.*.*..----
--00-*11*..1-*0
--.-10*0.*.0.0-
1.-.*.---..1.*-
-----0*0-*.-*--
-1-1---*---.---
0-*--0**.**-1-.
--1--0--.*-*.*.
0-0---0-*-1*0-1

Generation = 18, Population = 59.
-1*-.1.*--.*0..
*-.**-....*...*
-...*...*.*.-.*
--1-.......*0..
.-.-*..*...-*-1
1*-.....0***..*
-.1-...-.**1..*
*...*.*.*.-..10
--.-1-..**.-.*.
1.*0*-*.*...***
--.011-*....-01

Generation = 24, Population = 44.
-.**.-...-.....
.*.*.-...***.*.
-.*.*..*.*****.
0.-***......-..
.0....*.*.*-...
..*.*.....*....
..-....*..*-*..
*.........-.*.1
.-.*--**...1...
....*....*.*...
1**.......*.---

Generation = 30, Population = 43.
-..***...-.....
.**..1*........
..*..*.*..*....
-.**..**.*..1..
.1....***.*-.*.
..............*
..-**.*.*...*.*
.*....*.......*
.1...-....*.**.
.*...*....*...*
...*........--*

Generation = 36, Population = 45.
.*...*****.....
*...**...*.....
.....*.*****...
-...*...**..-*.
*...*****......
.**...*.*.....*
.........****..
.........**....
.1...-........*
..........***.*
...........**-.

*** Life<Cell> 12x8 ***

Generation = 0, Population = 27.
-0-0---0
0------0
------0-
--------
0-0-0--0
-0--0-0-
-------0
0-0-00-0
00------
-----00-
--0---0-
0---0---

Generation = 8, Population = 46.
*....*.-
...*.-..
....00*-
1*01.-**
**01..-*
*..-*--*
*-*--.-1
*..*-.*.
-*--0*-*
1*.**.-*
**-0-**1
.10-.**1

Generation = 16, Population = 32.
.......-
........
....*-..
**..**..
*..1***.
*...*.-*
*.*0...*
*.*.-..*
-..*1...
*.....*.
*.*.-*..
*.*1..**

Generation = 24, Population = 17.
.......-
........
.*.*....
*..*....
*..*....
.*.**...
......*.
....*...
**......
**......
**......
........

Generation = 32, Population = 10.
.......-
........
.****...
.*..*...
........
..***...
...*....
........
........
........
........
........

Generation = 40, Population = 20.
..**...-
.*..*...
.**.....
.**.....
.***....
....**..
....**..
..***...
..**....
........
........
........

Generation = 48, Population = 6.
.......-
........
........
........
....*...
..*..*..
...**...
...*....
........
........
........
........

Generation = 56, Population = 0.
.......-
........
........
........
........
........
........
........
........
........
........
........

Generation = 64, Population = 0.
.......-
........
........
........
........
........
........
........
........
........
........
........

*** Life<Cell> 9x7 ***

Generation = 0, Population = 35.
0---000
0--000-
0000-00
0----00
-00---0
000--0-
--000-0
000-0-0
---00--

Generation = 6, Population = 23.
.**-1-.
**-0-1-
.00--.-
*.*--1.
0-*.-.*
1*.-1--
*1-1-..
..--.--
-.1...*

Generation = 12, Population = 25.
.***.1.
*.--.**
.*-0-..
.*...-*
1*....*
*.*----
*1**0..
*.-*..-
1.1....

Generation = 18, Population = 20.
..***..
.*1..*.
.*.1*..
..****.
-...*.*
.......
.*.*-.*
.*-...-
..1....

Generation = 24, Population = 19.
.***...
*..*...
*...*..
*.*.**.
1*.***.
....*.*
....1..
..-...-
..-....

Generation = 30, Population = 15.
.*****.
*..***.
.......
...***.
-...**.
.*.....
.......
..-...-
..-....

Generation = 36, Population = 2.
.......
..*....
..*....
.......
-......
.......
.......
..-...-
..-....

Generation = 42, Population = 0.
.......
.......
.......
.......
-......
.......
.......
..-...-
..-....

Generation = 48, Population = 0.
.......
.......
.......
.......
-......
.......
.......
..-...-
..-....

Generation = 54, Population = 0.
.......
.......
.......
.......
-......
.......
.......
..-...-
..-....

Generation = 60, Population = 0.
.......
.......
.......
.......
-......
.......
.......
..-...-
..-....

Generation = 66, Population = 0.
.......
.......
.......
.......
-......
.......
.......
..-...-
..-....

Generation = 72, Population = 0.
.......
.......
.......
.......
-......
.......
.......
..-...-
..-....

*** Life<Cell> 9x19 ***

Generation = 0, Population = 32.
---0-----0--00-----
00------0----0---0-
-0-0----------0-000
---0----00-00--0---
0-00---------------
----0--------------
----0---0--0-------
-----0-------------
------------000----

Generation = 9, Population = 79.
.0.-0*1.**...-11-..
.-*01.-*...*.*-01.1
.*..-.-*-*--1**..*1
*0--.0-1**1..11.-.-
*-..*0...----*.-.*.
****..-1.-0..*10-.1
*..*.-..-1**.*0*-**
**-*-1-11---.-..-10
-*.**001110.-**..1-

Generation = 18, Population = 70.
...--..**....1**-..
.-*-..1*.*...****..
.*.**..***.***..**.
.-..**.*.****.-.**.
....*0...*.*...0...
.......-.***..*1-..
*..*.**.0.*..***...
.*****1.-.*-.0..0.-
-.....******...***.

Generation = 27, Population = 36.
.....***.....-..1..
.-.1....*.......**.
...**...**.......*.
.-**....*........**
....**...........*.
...........******..
.............*.*...
**........***......
**.................

Generation = 36, Population = 17.
.............-.....
.*.........*.......
.........**.*......
....***...*.*....**
....*.*....*.......
....**.............
...................
...................
...................

*** Life<Cell> 14x18 ***

Generation = 0, Population = 37.
--------0----0---0
------0---0-------
--0-------0---0--0
-0-----0-000------
-0-------------00-
---0--------0--0--
-0-0---00------0--
---------0--------
-0---------0------
--------0-----0---
-0--0-0----------0
------------------
--0---------0-0---
------------------

Generation = 13, Population = 99.
.1-**-**--1-*..---
*.1..-.*....*1....
.*--*--**.0--.1**-
0.-*11..1-...*..0-
*..-.10.*-*-..0..-
01.*-....*..0*...*
-.**.....--..1.*.*
1-................
---1-....**..1..*.
11*.**1-*..1*-1*-*
---.-0**.-.*.-**-.
1****0...**.-*111-
..-0-.*-...**-...1
01***-*-**.0.-***0

Generation = 26, Population = 74.
........-1.....---
.**..-*******.....
*.**...*.*1.*....-
*.***.....***...-.
***...*****.......
**.**.*..*........
..***..........**.
...*.*.........*.*
....**.**.........
....**1*.*.....**.
-.-.....*-...1*...
.............**.*1
........*..*.1***.
...........*...**-

Generation = 39, Population = 48.
........-.**...---
.*.........*......
.*.....*.........-
.*........*...*.-.
.....*..***.****..
.....**..**.**..*.
.*........*...*.*.
*.............***.
.**..*........**..
..*.*.............
-.0***...1........
...............*..
.............1.*..
...............*..

Generation = 52, Population = 36.
........-......---
..................
***..**..........-
....*..**.......-.
....**.**.........
....**............
......***.........
......*.*.........
.......*.....****.
............*....*
-.-......-.*......
...***......*....*
............**..**
..................

Generation = 65, Population = 19.
........-......---
.........**.......
........*..*.....-
.....**.**.*....-.
....*..**.*.......
.....*.*..........
......*...........
..................
..................
..................
-.-.*....-........
....*.............
....*.............
..................

Generation = 78, Population = 19.
...............---
.......**.*..*....
......*.......*..-
.....*........*.-.
......*.......*...
........**....*...
........*....*....
.........*........
..................
..................
-.-......-........
...***............
..................
..................

*** Life<Cell> 3x12 ***

Generation = 0, Population = 6.
------0---0-
---0-----00-
----------0-

*** Life<Cell> 6x5 ***

Generation = 0, Population = 11.
-----
00--0
----0
--000
----0
00--0

Generation = 14, Population = 10.
1--1.
*...*
*.*-*
.*..*
.-.*.
-....

Generation = 28, Population = 8.
.....
...*.
..**.
.**..
..**.
-..*.

*** Life<Cell> 17x16 ***

Generation = 0, Population = 31.
---0------------
--------0-------
----------------
----------------
---------0------
-------00---0---
--------0-------
-0------0-------
----------------
-----0---0---000
-------0----0---
-----0--------0-
---0----------0-
----------------
-----000--------
-------00-0---0-
------0-000-----

Generation = 6, Population = 123.
---0-0--0--0----
-00--11.01------
-1-0--00.10--0--
-----10*-1000100
-1--1.---1-1---1
-010..-*0-0*-*-*
--0--0-01*-1--0-
-01-****.*------
-0-00--1.*01010-
-0--1*10.1.1-.-.
-1-00-1*0--.0---
-00.0*--1.11....
-00000*.-.1000--
-----.1-*--1----
1*0-...--1-10-*-
-11-1...-..**--0
0-*.**1---****10

Generation = 12, Population = 115.
-0-*-.*..----111
--.10-1.-1--**-*
-*0--*--.*1--10*
--01-..*1...0.0-
0.--*.-.-..**.0*
.*.-....-1*.-*-.
-1*1**..*.-.-0-0
.-.*...*..001-1.
.0-1*-*1..-.0---
0-1**.***...*..*
-.-**1..-.1.-.-.
..*.*.*...-1...*
--***-*.*.*1.*-1
1.--0*...**.**.1
..0**.*-**..**.0
-..**...*.*..0..
11**..**--**..1.

Generation = 18, Population = 96.
10-.**...-.1-11*
**.....*-..-**-*
0.-.0.*1...*.-**
-.1.-......*-.01
*..........**.**
.......*-..**.-.
***.*.**..-**..-
...**.**...0.*-.
.0-.*-....**0-.*
--.**.**.*.*...*
-.**.**.*.1*-.1*
....*.*.**-*....
..*..**....*..*.
-.1-.**...*...*-
..*..**-...***.-
.*....**.....-..
.-**...*......-.

Generation = 24, Population = 88.
-*.......-..1**.
.*............*.
.*0.0..-.....*..
.*-.-.....**-...
..*....***.*.**.
.****..*.**..**.
.*.......**....0
**............*.
*-...-..........
*1*..*.*....*...
*...**.*....*.**
.**.**...****...
......*.....*..*
-.******...*...*
.*...***.**...*.
.**...*.***.*1..
.**....*...*..-.

Generation = 30, Population = 60.
.***.....-......
.*****..........
.*-.**.1........
.....**...**....
.........***....
*...............
*........*.....*
**.***.........*
.0*..*......*.**
.1*..*....*.....
...*....*...*...
........*...*...
........*.......
.***....*..*..**
..*......***....
.*.......***....
..............-.

*** Life<Cell> 9x12 ***

Generation = 0, Population = 30.
----------0-
-0-00-----00
---00-------
--0-----0---
000-0-0---0-
0---0--0----
0----------0
-----0---00-
0----0-000-0

Generation = 14, Population = 43.
.-****.-.-..
**.*..*.1...
*-*--.-*--*.
*1*..*.*-*..
**1**.1.*--.
*-...*..*-.-
*.**11......
*.-..11*..*-
-*-*-...**..

*** Life<Cell> 20x5 ***

Generation = 0, Population = 3.
-----
-----
-----
-----
-----
-----
-0---
-----
-----
-----
-----
-----
-----
-----
--00-
-----
-----
-----
-----
-----

Generation = 14, Population = 42.
-01--
-----
01.-1
-----
1.1-0
-1-0-
**-..
1---1
*--..
-*0.1
..1.*
0-1*-
*-.*0
1.01.
..*.*
0.-.-
*.*.-
-*-1-
***..
1*--0

Generation = 28, Population = 22.
.-...
-...1
.*..*
...*.
...*.
..-..
.....
.....
.....
..*..
.*.*.
.*.*.
.....
.*-*.
..**.
..**.
.....
-*.*-
..***
1....

Generation = 42, Population = 0.
.-...
-....
.....
.....
.....
..-..
.....
.....
.....
.....
.....
.....
.....
.....
.....
.....
.....
-...-
.....
-....

Generation = 56, Population = 0.
.-...
-....
.....
.....
.....
..-..
.....
.....
.....
.....
.....
.....
.....
.....
.....
.....
.....
-...-
.....
-....

Generation = 70, Population = 0.
.-...
-....
.....
.....
.....
..-..
.....
.....
.....
.....
.....
.....
.....
.....
.....
.....
.....
-...-
.....
-....

Generation = 84, Population = 0.
.-...
-....
.....
.....
.....
..-..
.....
.....
.....
.....
.....
.....
.....
.....
.....
.....
.....
-...-
.....
-....

Generation = 98, Population = 0.
.-...
-....
.....
.....
.....
..-..
.....
.....
.....
.....
.....
.....
.....
.....
.....
.....
.....
-...-
.....
-....

*** Life<Cell> 12x12 ***

Generation = 0, Population = 43.
---0--0-----
0---0-0---0-
-00000--0---
--0-0-0-0---
---0-0----0-
0-0--00----0
000------0-0
-------0----
0-0--00-----
0-----0----0
--00---0---0
0---0-------

*** Life<Cell> 10x15 ***

Generation = 0, Population = 23.
--0-----0-----0
----0----------
-0---0---------
--0--0-0-----0-
-0--0-------0--
---0--------0--
-------0--0-0--
0---------0----
---------------
--0----0------0

Generation = 9, Population = 68.
**--**.--*0-*--
.00.*-*0.-.-1.*
-**10.-*.-0-*0-
-*0-*.*.-.1*.*1
***.---..0--.--
*-.*--1.-0.*..-
-.-01*.11...-10
--.***1**-.0--1
-0-0.*0-00*-..*
-1.-..0.-.*1*1-

Generation = 18, Population = 54.
.............1.
.......-....**.
......-*...**1*
..*****.*.*.*.*
.*..*-*.***-.**
*...-1-*1****.*
*.*..*.1..*.-.-
*.....***....-1
1.-.....-..*...
0..-..*******.-

Generation = 27, Population = 45.
...............
.......-...***.
......-..**..*.
**...*...**.**.
....**..*......
*...-*...***...
.*...*...*..-**
.*...*....***.*
*..*.....**.*.*
..**...***...**

*** Life<Cell> 5x12 ***

Generation = 0, Population = 7.
------------
-----0------
-------0-0--
-----0------
0-0--0------

Generation = 6, Population = 22.
--0-1.-*---0
-0-------*-0
--*.1--0-0--
-*-*0*-.10-0
-..**.-1-1--

Generation = 12, Population = 23.
0-.1..-.1-1.
.-.0*--11*1.
1*..*.----10
-**.-.-..-*0
.****.---.-.

Generation = 18, Population = 21.
-...**-..**.
.-.0**1.**.*
**.*.*1---.-
*.....-...*0
......0-1.-.

Generation = 24, Population = 11.
1.*...-.....
*-.**.......
..**..1..-..
..*....*...-
......-*....

Generation = 30, Population = 16.
***...-.....
*-***.......
..*...*..-..
**.*..*....-
**.*........

Generation = 36, Population = 6.
......-.....
............
**.......-..
**.........-
**..........

Generation = 42, Population = 0.
......-.....
............
.........-..
...........-
............

Generation = 48, Population = 0.
......-.....
............
.........-..
...........-
............

Generation = 54, Population = 0.
......-.....
............
.........-..
...........-
............

Generation = 60, Population = 0.
......-.....
............
.........-..
...........-
............

Generation = 66, Population = 0.
......-.....
............
.........-..
...........-
............

Generation = 72, Population = 0.
......-.....
............
.........-..
...........-
............

Generation = 78, Population = 0.
......-.....
............
.........-..
...........-
............

Generation = 84, Population = 0.
......-.....
............
.........-..
...........-
............

Generation = 90, Population = 0.
......-.....
............
.........-..
...........-
............

Generation = 96, Population = 0.
......-.....
............
.........-..
...........-
............

*** Life<Cell> 9x1 ***

Generation = 0, Population = 4.
-
-
0
-
0
-
-
0
0

Generation = 5, Population = 3.
-
-
0
1
*
.
-
.
.

Generation = 10, Population = 0.
-
-
.
.
.
.
-
.
.

Generation = 15, Population = 0.
-
-
.
.
.
.
-
.
.

Generation = 20, Population = 0.
-
-
.
.
.
.
-
.
.

Generation = 25, Population = 0.
-
-
.
.
.
.
-
.
.

Generation = 30, Population = 0.
-
-
.
.
.
.
-
.
.

*** Life<Cell> 10x20 ***

Generation = 0, Population = 35.
------0----0---00-0-
---0-0---------0----
-00-0--0------------
--------00-------00-
0-00----0---0-------
--------------0--0-0
0----00---------0--0
--------0------0----
----0----0----------
----------0----0----

Generation = 14, Population = 79.
.-..*1*.*-*-.....1**
**.01*.*-*..0*..--.*
*.....*-.*--.0....*.
*.....100...*1......
.-.....**.1.*-.-...1
..0--.-1-***.*-.-...
-..*****-**-.-*11..*
*1.****0..*1*.**1.*-
......*0..-*-..*1--.
--1..-.*.-.*****-.*1

Generation = 28, Population = 48.
...........-........
.*.*.....*.*....-...
.........**-........
*....*.....*........
*-...*.....**..-...-
***1....*.**....*...
.......*-***...**...
**.....*.***..*..*..
**.*..**...**..**...
-.*..-.....*...**...

Generation = 42, Population = 43.
..........***.......
.......**.***...-...
.......**.*..**.....
........**....**....
....**..**.........-
.**.***.............
*...****............
*..*.*.*............
.*.****.............
...***..............

Generation = 56, Population = 30.
....................
................-...
..............*.....
.............**.*...
.............**.**.-
.*......****.**.*...
*.*.....*......*....
..**..........*.....
*.**.....*..........
.**........*........

Generation = 70, Population = 35.
...........**...*...
...........*.*.*.**.
.............*.**.**
.....**....*...****.
....*.*.......**....
....*.........**....
....*.*.....*..*....
.....**......**.....
....................
....................

Generation = 84, Population = 47.
...**..**..**.......
...**...**.**.......
....................
..................**
*..............**.**
*.*............**...
*.**..........*...**
*...*..**......**.**
.*.****........**...
...***..............

*** Life<Cell> 10x10 ***

Generation = 0, Population = 6.
----------
----0-----
----------
---------0
----------
-0---0----
----------
---------0
----------
---------0

Generation = 5, Population = 38.
00--00--0-
1*001*00-0
00--0--000
----1.----
----0--0-0
---0110---
----0--0--
----0---0-
-0---0---0
0-0---0---

Generation = 10, Population = 30.
---1----1-
*.-0-.1-..
-.-0----1-
*.0-**--00
---111----
-1-..***-0
---110----
-0-..----0
----------
--0*.-00--

Generation = 15, Population = 43.
-0-.--.0-0
.*.-..1*..
..1*11-0*0
*.*-....0-
-.*.*..1.0
.-*.*...-*
-.-**00*--
-.-.**01--
--***-0-0-
--1.***.**

Generation = 20, Population = 38.
-****-...-
...0**..**
*.-.*..0*1
...-...*.*
-*.....*..
.*....**-*
0...*.-*.*
1.....0-0-
*0**.--1*1
*1........

Generation = 25, Population = 31.
.*...-..**
*..-.....*
.......***
.*.1.*....
....*..***
....**...*
-.....1..*
-....***-*
.....*1..*
.-...****.

Generation = 30, Population = 23.
.....-.*..
...-..**..
.....**.*.
..**......
..**....**
..*......*
-......*..
-....**.-.
....*....*
.-...****.

Generation = 35, Population = 28.
...**1**..
...-**..*.
..*..*....
.**...***.
....**.**.
.......*..
-..*...**.
-..*....-.
....*...*.
.-...*..*.

Generation = 40, Population = 20.
..........
...-..**..
......**..
......**..
..***.....
....****..
-.*.....*.
-.*.....-.
...****...
.-........

Generation = 45, Population = 32.
.....***..
...-.***..
...**...*.
..*****.*.
..****....
***...*...
****......
1**...**-.
..........
.-........

Generation = 50, Population = 10.
..........
...-...**.
......*...
.......**.
........*.
.......***
.......*..
-.......-.
..........
.-........

Generation = 55, Population = 12.
..........
...-...*..
......**..
......*.*.
.......**.
.......*.*
.......**.
-.......1.
..........
.-........

Generation = 60, Population = 11.
......*...
...-....*.
.....*..*.
......**..
..........
..........
.......*..
-.....**..
.......**.
.-........

Generation = 65, Population = 14.
..........
...-...*..
......*.*.
......**..
..........
..........
......**..
-....*..*.
.....**.**
.-.....*..

Generation = 70, Population = 17.
..........
...-...*..
......*.*.
.....*..*.
.....*....
......*.*.
.....***..
-...**....
...*..*...
.-..**....

Generation = 75, Population = 21.
..........
...-......
.......*..
.....**.**
......*.**
.....*..*.
...*.*....
-..*.*.**.
...*.****.
.-........

Generation = 80, Population = 25.
..........
...-.***..
.....*..*.
......***.
.......**.
...*......
...*.**.*.
-..*.**..*
....*.....
.-..*****.

Generation = 85, Population = 29.
....*.***.
...-*.**.*
......*..*
.....**...
...**.....
....*.***.
.**.**....
-.*.......
..**.*....
.-..***...

Generation = 90, Population = 19.
..........
...-......
....**....
....*.*...
..........
.....***..
.******.*.
-*....**..
..........
.-.**.....

Generation = 95, Population = 19.
..........
...-......
....***...
...*.**...
...*....*.
....***.*.
**...**.*.
**........
..........
.-........

*** Life<Cell> 2x5 ***

Generation = 0, Population = 6.
-000-
0-0-0

Generation = 13, Population = 0.
.....
.....

Generation = 26, Population = 0.
.....
.....

Generation = 39, Population = 0.
.....
.....

*** Life<Cell> 16x19 ***

Generation = 0, Population = 38.
-----------0-------
-------------------
-------------------
-------0-0---0-0---
-------------0-----
-0----------00---0-
--------0----------
------0-----------0
---0------0--------
--00---0-----------
-------00-00-------
-0-0------0--------
--0--0--------0----
----00-------------
0---------0--0-----
-0------0-0-----00-

Generation = 13, Population = 111.
-*-*-.*..*-.-*..0*0
.*1*-.-...1..-*--.*
01..0*-..-*...0.11-
--.*.*-.1....-*..-*
*.***1*.-*...0*...-
.1..0*0...1.*..-.*.
01*.--..**..**....-
1.***1..*.*-10....*
-...1...-...-***.-.
..*.*....1-....1.1-
.-...1*..-*..*.*--.
1.*1.*1....*-*.*.*0
**....1...-*..-..-.
.*........**0..1..*
*-..0.*0..1**1.-..-
**-.-**0....-.***.*

Generation = 26, Population = 71.
-.....*.....*.....-
..-.0........*...*.
-..*....*-...*...*.
1.*...***.........*
...*.-....*...*...*
..........****.1...
**...........*.*..1
...........**.....*
.........*.**...**.
.........*.......*.
*.*......*..****-*.
***.........1****.-
.*...........*-..-.
.***.......*-**....
..***.......**.....
..**1..-...........

Generation = 39, Population = 26.
-.................-
....-..............
.........-.......**
-.....**.........**
.....-...*.........
.........*.*.......
...........*...*...
........*.**...*...
..........**...*...
...................
...................
............**.....
..........*..*.....
..........*..*.....
..........*.*......
....-..-...........

Generation = 52, Population = 37.
-.................-
....-..............
.........-.......**
-................**
.....-.............
.............*.....
.........*...*.....
........**....*....
.........**........
..........*........
.......*.**........
........*...***.**.
..........****.....
.........**.......*
.........**.*....*.
....-..-...**..**..

Generation = 65, Population = 21.
-.................-
....-..............
........*0.......**
-.......*........**
.....-...*.........
...................
...................
...................
...................
..........**.......
..........**.......
.........****......
.........*.........
...........*.......
.............**....
....-..-.....*.....

*** Life<Cell> 8x12 ***

Generation = 0, Population = 8.
------------
-----------0
------------
--0--0----0-
---0-0---0--
------------
------------
----0-------

Generation = 10, Population = 42.
----0-00-*-*
-1---.--**-*
-.0.1**.-.0-
**..*-0-.***
1*-*-.1-1-..
0.*-..*.0-1*
---.-.-*-00*
0-1-**.1-0-.

Generation = 20, Population = 33.
1*-..-*.-.1.
..-.1***..*.
.*-**.....*.
..*.*.-.....
..-.0..*.**.
....*..*.*..
..1.0...0...
1-.***.****.

Generation = 30, Population = 28.
....**......
..-...*.....
..*.**......
******......
**..1*..*.*.
..**.*.*...*
..*.-...*..*
--.......**.

*** Life<Cell> 4x19 ***

Generation = 0, Population = 13.
0-0-------00------0
--------0---0------
0---0-----0--0-----
--0---------------0

Generation = 6, Population = 32.
----101-..-***0*0-0
10.1--*-00-1-0--.-.
.-1-11.1.--**.-1-1.
*-1---*-.---.1*-0--

Generation = 12, Population = 34.
01**.0*..**.**-**10
....1-.*.*.--**..0.
.-*1..**..-...*-1-.
.1.---.1.*--**..1*1

Generation = 18, Population = 22.
.*............-...-
*.**-*.***.*0......
****......*.*..-.-.
****.0.....*.......

Generation = 24, Population = 16.
.***...***....-...-
.*.**.*.....-......
...**.*.**.....-.-.
.....0.............

Generation = 30, Population = 12.
..**.*.*......-...-
..**...*....-......
.*...*.........-.-.
..*.**.............

Generation = 36, Population = 11.
..****........-...-
.*....*.....-......
.*.....*.......-.-.
..*.*.*............

Generation = 42, Population = 9.
..............-...-
.*....**....-......
*.....**.......-.-.
***................

Generation = 48, Population = 8.
..............-...-
......**....-......
**....**.......-.-.
**.................

*** Life<Cell> 18x9 ***

Generation = 0, Population = 7.
0--------
------0--
------0--
-------0-
---------
---------
---------
----0----
---------
---------
---0-----
---------
---------
---------
---------
---------
---------
---0-----

Generation = 3, Population = 50.
-0-000--0
0-0010-*-
-0-01-1-1
0----1-00
----0-1--
---0-0--0
--0-0-00-
-0---0-0-
------0--
-0-------
0-0---0--
-0-0-0---
--0-0----
---0-----
---0-----
--0-0----
-0---0---
0-----0--

Generation = 6, Population = 52.
--*-1-.--
1--1*11.-
0-------.
-0----110
---1--*-0
1--1-----
10--11.-1
0-0--0-.*
---0--01-
0---0--10
-----0---
--01--0--
---1---0-
-0-.10---
-0---0---
-0-*-0-0-
---1-----
---0-0-0-

Generation = 9, Population = 75.
--.0*-*--
.--*.-*.-
.01-*0*0.
0-0*--111
---.--.-*
.--.00110
.-00.**-*
10-001-**
-000--1-0
0-01001--
--0*00--0
---1---10
-0-.00-0-
0.0.*10--
-0-*-0---
-1-*-----
---*0--0-
--0.0-0-0

Generation = 12, Population = 60.
01.-.-.01
*--**-..1
*--1*1.0.
---.-*-*-
0-0.-0.**
*1-....--
**.-...1.
.11.0*1*.
--1.*-..1
-01-.1-.*
--0*10---
---.---11
01-.---.-
-.1..1.00
0-0.0----
-*-.1-0--
---.-*-0-
1--.--1--

Generation = 15, Population = 79.
-.***0.-1
*1-..-**.
...-.*.1*
-*0.-.1*-
.*-..-.**
**1***.1.
...-*****
.1-.-*-**
---.*****
-.*1*.1..
111*1--11
0*-*-*.*.
1*-.---.0
1*.*.*.1-
111..*--0
-.-*.-0-0
**1.0*---
-.-.11---

Generation = 18, Population = 53.
*.....*-1
**-..-...
...1**.**
0*..-...1
..-...*..
*.-..*.1.
*..1.....
.-.*0.-..
1.-*.....
1........
**..*01-*
*...*.**.
*.*.---.-
*...*..**
-*....---
1*-..*11-
..*.0.---
.***-*1--

Generation = 21, Population = 48.
.*...*.1*
*.-*.1..*
*..*....*
*.**-....
*.-......
..-....1.
..**.....
.*.*1.-..
.*-......
1.*......
*...*0-*.
...**.*..
*..*0-..0
*........
.*..*..-.
.*-*..-.1
....1.--1
.***1*.--

Generation = 24, Population = 49.
**.**.*..
*.***.*..
*.*...*..
.*.......
.........
..1....-.
**.......
...**.-..
..1***...
*.*.**...
.....11..
...*..**.
..*.--..-
.**.**...
**...*.1.
..1.*.-**
..*...--.
......*0*

Generation = 27, Population = 32.
**..**...
*...*.*..
**..***..
.........
.........
**1....-.
..*......
..*...-..
..-......
*.*......
.....--..
...*..*..
....--..-
..*......
.**.*....
..*.**-*.
..*..*-1.
.......-.

Generation = 30, Population = 43.
...***...
...*..*..
.****.*..
.....*...
**.......
..-....-.
.**......
.***..-..
..*......
.........
.....-1..
.........
..**0-..-
..***....
.*.***...
..*.**-..
..****1*.
....****.

Generation = 33, Population = 47.
.....*...
...*..*..
.***.**..
.**.**...
.*.**....
**1**..-.
**.**....
.*..*.-..
.*..*....
..**.....
.....1-..
...*.*...
.**.11..-
*........
*..*.....
*.*...**.
.....*...
......**.

Generation = 36, Population = 15.
.........
......*..
......*..
......*..
.........
..-....-.
....*.*..
....*.-..
.....*...
***......
......1..
.........
.....-..-
.*.*.....
.*.*.....
.........
.........
.........

Generation = 39, Population = 7.
.........
.........
.....***.
.........
.........
..-....-.
.........
......1..
.*.......
.*.......
.*....-..
.........
.....-..-
.........
.........
.........
.........
.........

Generation = 42, Population = 6.
.........
......*..
......*..
......*..
.........
..-....-.
.........
......-..
.........
***......
......-..
.........
.....-..-
.........
.........
.........
.........
.........

Generation = 45, Population = 6.
.........
.........
.....***.
.........
.........
..-....-.
.........
......-..
.*.......
.*.......
.*....-..
.........
.....-..-
.........
.........
.........
.........
.........

Generation = 48, Population = 6.
.........
......*..
......*..
......*..
.........
..-....-.
.........
......-..
.........
***......
......-..
.........
.....-..-
.........
.........
.........
.........
.........

Generation = 51, Population = 6.
.........
.........
.....***.
.........
.........
..-....-.
.........
......-..
.*.......
.*.......
.*....-..
.........
.....-..-
.........
.........
.........
.........
.........

Generation = 54, Population = 6.
.........
......*..
......*..
......*..
.........
..-....-.
.........
......-..
.........
***......
......-..
.........
.....-..-
.........
.........
.........
.........
.........

Generation = 57, Population = 6.
.........
.........
.....***.
.........
.........
..-....-.
.........
......-..
.*.......
.*.......
.*....-..
.........
.....-..-
.........
.........
.........
.........
.........

Generation = 60, Population = 6.
.........
......*..
......*..
......*..
.........
..-....-.
.........
......-..
.........
***......
......-..
.........
.....-..-
.........
.........
.........
.........
.........

Generation = 63, Population = 6.
.........
.........
.....***.
.........
.........
..-....-.
.........
......-..
.*.......
.*.......
.*....-..
.........
.....-..-
.........
.........
.........
.........
.........

Generation = 66, Population = 6.
.........
......*..
......*..
......*..
.........
..-....-.
.........
......-..
.........
***......
......-..
.........
.....-..-
.........
.........
.........
.........
.........

Generation = 69, Population = 6.
.........
.........
.....***.
.........
.........
..-....-.
.........
......-..
.*.......
.*.......
.*....-..
.........
.....-..-
.........
.........
.........
.........
.........

Generation = 72, Population = 6.
.........
......*..
......*..
......*..
.........
..-....-.
.........
......-..
.........
***......
......-..
.........
.....-..-
.........
.........
.........
.........
.........

Generation = 75, Population = 6.
.........
.........
.....***.
.........
.........
..-....-.
.........
......-..
.*.......
.*.......
.*....-..
.........
.....-..-
.........
.........
.........
.........
.........

Generation = 78, Population = 6.
.........
......*..
......*..
......*..
.........
..-....-.
.........
......-..
.........
***......
......-..
.........
.....-..-
.........
.........
.........
.........
.........

Generation = 81, Population = 6.
.........
.........
.....***.
.........
.........
..-....-.
.........
......-..
.*.......
.*.......
.*....-..
.........
.....-..-
.........
.........
.........
.........
.........

Generation = 84, Population = 6.
.........
......*..
......*..
......*..
.........
..-....-.
.........
......-..
.........
***......
......-..
.........
.....-..-
.........
.........
.........
.........
.........

Generation = 87, Population = 6.
.........
.........
.....***.
.........
.........
..-....-.
.........
......-..
.*.......
.*.......
.*....-..
.........
.....-..-
.........
.........
.........
.........
.........

Generation = 90, Population = 6.
.........
......*..
......*..
......*..
.........
..-....-.
.........
......-..
.........
***......
......-..
.........
.....-..-
.........
.........
.........
.........
.........

Generation = 93, Population = 6.
.........
.........
.....***.
.........
.........
..-....-.
.........
......-..
.*.......
.*.......
.*....-..
.........
.....-..-
.........
.........
.........
.........
.........

Generation = 96, Population = 6.
.........
......*..
......*..
......*..
.........
..-....-.
.........
......-..
.........
***......
......-..
.........
.....-..-
.........
.........
.........
.........
.........

*** Life<Cell> 10x12 ***

Generation = 0, Population = 22.
-00---------
-0----0-----
-0------0---
--0---------
------0--0--
0-----------
------00--0-
-0--0--0----
----0-0-000-
----------0-

Generation = 14, Population = 63.
-**.-**...-*
*.**.**-.**.
..*0...**.**
*..**-.**1**
..0***.--**.
*.-1*1*.***1
*..*1.-0..1.
*.********..
.-.*.-*.-0.-
..-1***....1

Generation = 28, Population = 31.
-.........1.
..........*.
..*........*
..*.......*.
..***.*****.
...*....*.**
.......1*.**
......*.*.**
...*....*..*
.........**.

Generation = 42, Population = 29.
-...........
.*........**
*.*.......**
*.*...**....
.*...*.*....
....**.*....
.......**...
....*..**.**
.....***..**
............

Generation = 56, Population = 20.
-....***....
.....***....
**......*...
**..........
............
............
............
....**......
....*..**...
.....****...

*** Life<Cell> 16x3 ***

Generation = 0, Population = 31.
-00
0--
-00
00-
-00
-00
0-0
-00
-0-
000
000
--0
-00
000
-0-
00-

Generation = 12, Population = 16.
-..
...
-1.
..-
.*.
-.*
--*
***
1*-
*-0
*.*
*-.
-**
...
...
.-.

Generation = 24, Population = 5.
-..
...
-1.
..-
...
...
**.
**.
...
...
...
.-.
-..
...
...
.-.

Generation = 36, Population = 5.
-..
...
-1.
..-
...
...
**.
**.
...
...
...
.-.
-..
...
...
.-.

Generation = 48, Population = 5.
-..
...
-1.
..-
...
...
**.
**.
...
...
...
.-.
-..
...
...
.-.

Generation = 60, Population = 5.
-..
...
-1.
..-
...
...
**.
**.
...
...
...
.-.
-..
...
...
.-.

Generation = 72, Population = 5.
-..
...
-1.
..-
...
...
**.
**.
...
...
...
.-.
-..
...
...
.-.

*** Life<Cell> 16x11 ***

Generation = 0, Population = 16.
-----------
---------0-
-----------
-----------
-------0---
--------0--
-----------
-------0---
-----------
-0-0---00--
-----------
----00-----
-------0---
-0--------0
---0-0-----
-------0---

Generation = 11, Population = 86.
-0--01---0-
0-0.-1-*--0
0-0-*0-.1-0
1--..1-.---
010**-010*-
.1*-.*11*..
00**0*-*-0-
10..-10**1-
*0-----*0.-
0-**..***..
1--*-.1*1*-
..-1-.1-*.*
0.1*-.11-.0
-0-*---.-.-
**-*-*-10.-
-.-1**1--1.

*** Life<Cell> 15x13 ***

Generation = 0, Population = 36.
0-------0-0--
----0--0-----
-00--------0-
--------00---
--0----------
0---0-00-----
----0-0------
-------------
--0-----0000-
-----------0-
-0---0-00----
------0------
--0--------00
0----0-------
---------0-00

Generation = 13, Population = 98.
...1.0.-.11..
..*-***..-0..
-.*...1****1.
.*01*.*.-*.-1
.**1.1..*.*..
.**1.-*******
.110***11*1*-
*-0.****..-1.
**.1..-**...*
-.01*..0*.-.1
-****..*..--*
*..1.-**..*.-
*.-*11.*1-..*
.*...**--.*..
0..**-1.1..**

Generation = 26, Population = 40.
..*..........
.***.........
-.....*......
****...*.....
*..*..*......
**.......***.
**.....-...*1
..........-**
..........**.
..-.......1..
.......***...
.......***...
....--....***
.*.........**
-*...........

Generation = 39, Population = 45.
**.**........
**.**........
.........*...
.........*...
...*.....***.
..*.*......**
.*..*.....*.*
..***...**..*
....***..***.
..-..**...*..
.....**......
.....*.*.....
....1**......
......*......
-............

*** Life<Cell> 17x15 ***

Generation = 0, Population = 28.
0--0-----------
0--0-------00--
-0----0-0------
-----------0---
-0-0-----------
--0------------
--------------0
------0------0-
-0-------------
---------------
-------0--0----
---------------
-0------0--0---
--0---------0--
0-------0------
------0--------
0--------------

Generation = 13, Population = 95.
...*.-..*-.-.**
....*.--.**...*
*-....0*.-...**
*.*..**--.0.-.*
.*-.*....*.---0
.****-.1..-*1.*
-.**......*-*1*
11-.---......1*
*.-**..1-.0.---
*.1.01-1*-1..1-
.-1*-..1.*....0
.1-*.*.*.---*-*
*-0.*.-...-.*.*
...1*00---**-.-
*...-1*1*1..**-
--*1.0.-.1.-..*
*..****....-.-0

Generation = 26, Population = 47.
.....-.........
...............
.-.......**....
.**..**..**....
..**...*....*..
.*.*.**...-.-..
.*.*.**...***..
*...0..........
.*..*...-.-....
.*.*1.-.......0
..*............
.............*.
..........-.***
......-..-.*...
...........*.**
...*.*.....*.*.
....**.....1...

Generation = 39, Population = 70.
....***........
**.*.*****...*.
...**..***...**
*.......*...*.*
..*******......
..*............
..**.*.*.......
...*.*.*.......
..****.*-.-....
..*...-.......-
...............
..........*....
.........***...
......-.*****..
.......**...**.
....***.*****..
....**...***...

*** Life<Cell> 10x13 ***

Generation = 0, Population = 29.
---0---------
--0-0-0---0--
-----0---0-0-
------0--000-
----0-0--0---
--------0----
----0---00-0-
-0--00-------
-0---00--0---
----0-----0--

Generation = 12, Population = 44.
**1**...-.-.-
-*----*.-.--.
*.-*1..1***.-
1**0.-.....-.
*1..*.....-..
**.---.1*.1..
..1*.*-..**-.
***-****...0-
0..-.*.-.1.-.
..--....**..-

Generation = 24, Population = 33.
.............
-....-...*.*.
.**......*.*1
.*..*-...*.*.
..****....1..
.....***.....
..*.*.*.**...
.*......**.0-
.**....0**...
............-

Generation = 36, Population = 41.
...........*.
-.*.......**.
.**.***..*...
*.*..**..***.
.....**...**.
**...........
**..**...*...
.....*..*.*0-
...*.*..*.*..
**.**....*..-

Generation = 48, Population = 16.
.**..........
*....*.......
.......*.....
.............
......*.*....
.....*.*.....
...**........
*.**.........
.**..........
.............

Generation = 60, Population = 9.
.............
.............
.............
.............
..*...***....
.*.*.........
*............
.*.*.........
.............
.............

Generation = 72, Population = 10.
.............
.............
.............
.............
.**...***....
*..*.........
*.*..........
.*...........
.............
.............

Generation = 84, Population = 10.
.............
.............
.............
.............
.**...***....
*..*.........
*.*..........
.*...........
.............
.............

*** Life<Cell> 10x3 ***

Generation = 0, Population = 24.
0-0
000
000
0-0
00-
000
-00
000
0-0
00-

Generation = 5, Population = 14.
-1*
.**
1.*
1*-
1-1
0.1
..1
--.
--.
-1-

Generation = 10, Population = 8.
.*.
..*
.*.
..1
1-.
-.-
...
0-.
--.
0-1

Generation = 15, Population = 7.
...
.*.
*..
*.-
-*.
-.1
...
-1.
--.
-1-

Generation = 20, Population = 8.
...
...
...
**1
*..
*.-
...
--.
-1.
0-1

Generation = 25, Population = 7.
...
.*.
*.*
*.*
.*.
..-
...
--.
--.
-1-

Generation = 30, Population = 8.
...
.*.
*.*
*.*
.*.
..-
...
0-.
-1.
---

Generation = 35, Population = 7.
...
.*.
*.*
*.*
.*.
..-
...
-1.
--.
---

Generation = 40, Population = 9.
...
.*.
*.*
*.*
.*.
..-
...
0-.
--.
0-1

Generation = 45, Population = 8.
...
.*.
*.*
*.*
.*.
..-
...
-1.
--.
-1-

Generation = 50, Population = 9.
...
.*.
*.*
*.*
.*.
..-
...
--.
-1.
0-1

Generation = 55, Population = 7.
...
.*.
*.*
*.*
.*.
..-
...
--.
--.
-1-

Generation = 60, Population = 8.
...
.*.
*.*
*.*
.*.
..-
...
0-.
-1.
---

Generation = 65, Population = 7.
...
.*.
*.*
*.*
.*.
..-
...
-1.
--.
---

Generation = 70, Population = 9.
...
.*.
*.*
*.*
.*.
..-
...
0-.
--.
0-1

Generation = 75, Population = 8.
...
.*.
*.*
*.*
.*.
..-
...
-1.
--.
-1-

*** Life<Cell> 2x11 ***

Generation = 0, Population = 19.
000-000000-
000000000-0

Generation = 3, Population = 13.
-.-011**--1
11*-*.*11--

Generation = 6, Population = 11.
-.-1**..-*-
**.-**..***

Generation = 9, Population = 7.
-.-.*...-*-
...**...***

Generation = 12, Population = 8.
-.*.*...-*-
..*.*...***

Generation = 15, Population = 4.
-.......-*-
........***

Generation = 18, Population = 4.
-.......-*-
........***

Generation = 21, Population = 4.
-.......-*-
........***

Generation = 24, Population = 4.
-.......-*-
........***

Generation = 27, Population = 4.
-.......-*-
........***

Generation = 30, Population = 4.
-.......-*-
........***

Generation = 33, Population = 4.
-.......-*-
........***

Generation = 36, Population = 4.
-.......-*-
........***

Generation = 39, Population = 4.
-.......-*-
........***

Generation = 42, Population = 4.
-.......-*-
........***
