*** Life<ConwayCell> 50x27 ***

Generation = 0, Population = 6.
...........................
...........................
...........................
...........................
............*..............
...........................
...........................
...........................
...........................
...........................
...........................
...........................
...........................
...........................
...........................
...........................
...........................
...........................
...........................
............*..............
...........*...............
...........................
...........................
...........................
*..........................
...........................
...........................
...*.......................
....................*......
...........................
...........................
...........................
...........................
...........................
...........................
...........................
...........................
...........................
...........................
...........................
...........................
...........................
...........................
...........................
...........................
...........................
...........................
...........................
...........................
...........................

*** Life<ConwayCell> 8x22 ***

Generation = 0, Population = 47.
*..*..*........**.**..
.***..*....*..*.....*.
......*.......*.***..*
*.....*.........**...*
*........**.*..**.*...
............*.........
*..*.....*..*.**...***
.**.........*..*.....*

Generation = 1, Population = 45.
.*.*...........*...*..
.***.***......*.....*.
.**..***........*.*.**
......................
...........*...**.....
.........**.*.*.*..**.
.**........**.**....**
.**..........***.....*

Generation = 2, Population = 49.
.*.**.*...............
*..*.*.*.......*....**
.*.***.*...........***
......*........***....
..........**...**.....
..........*.*.*.*..***
.**.......***...*..*.*
.**.........**.*....**

Generation = 3, Population = 46.
..*****...............
**.....*...........*.*
..**.*.*.......*...*.*
....***........*.*..*.
..........**..*.....*.
.........*..**..**.*.*
.**.......*...*.*..*..
.**.........**......**

*** Life<ConwayCell> 21x4 ***

Generation = 0, Population = 36.
.*.*
**.*
***.
..**
.*..
...*
...*
**..
..*.
*...
.*..
***.
*.*.
*..*
...*
...*
.*..
.*..
**.*
*...
***.

Generation = 1, Population = 32.
**..
...*
*...
*..*
...*
..*.
..*.
.**.
*...
.*..
..*.
*.*.
*.**
.***
..**
..*.
..*.
.*..
***.
....
**..

Generation = 2, Population = 25.
....
**..
....
....
..**
..**
..**
.**.
*.*.
.*..
..*.
..*.
*...
....
....
.**.
.**.
*...
***.
..*.
....

*** Life<ConwayCell> 6x28 ***

Generation = 0, Population = 16.
*..........*.............*..
*...*..*....................
...............*...*..*.....
............................
**....*..*..............*...
............**..............

Generation = 4, Population = 0.
............................
............................
............................
............................
............................
............................

*** Life<ConwayCell> 3x44 ***

Generation = 0, Population = 16.
..*.*.....*..........*...*....*......*......
....*........*.........................*.*..
*..............*.....*.....*.............*..

Generation = 1, Population = 4.
...*........................................
...*....................................*...
........................................*...

Generation = 2, Population = 0.
............................................
............................................
............................................

Generation = 3, Population = 0.
............................................
............................................
............................................

*** Life<ConwayCell> 40x16 ***

Generation = 0, Population = 23.
................
....*..........*
............*...
................
.........*.*....
................
................
................
................
....*...........
................
................
..............*.
...*............
...........*....
.**.............
................
................
................
.......*........
................
................
................
................
.......*........
................
..............*.
..........*.....
*...............
....*...........
................
..*....*.*......
*...............
............*...
............*...
................
................
................
................
................

Generation = 3, Population = 0.
................
................
................
................
................
................
................
................
................
................
................
................
................
................
................
................
................
................
................
................
................
................
................
................
................
................
................
................
................
................
................
................
................
................
................
................
................
................
................
................

*** Life<ConwayCell> 50x19 ***

Generation = 0, Population = 19.
...................
...................
...*.........*.....
...................
...................
...................
*..................
.........*.........
...................
...................
...................
...................
**.................
...................
...................
...................
...................
..*................
...................
...................
...................
...................
...................
...................
...................
.....*.............
...................
...........*.......
...................
...................
...................
..*................
...................
.....*..*..........
...................
...................
.....*.............
...................
...................
...................
..........*........
..........*........
...................
...................
...................
.....*.............
..................*
...................
...................
..*......*.........

Generation = 1, Population = 0.
...................
...................
...................
...................
...................
...................
...................
...................
...................
...................
...................
...................
...................
...................
...................
...................
...................
...................
...................
...................
...................
...................
...................
...................
...................
...................
...................
...................
...................
...................
...................
...................
...................
...................
...................
...................
...................
...................
...................
...................
...................
...................
...................
...................
...................
...................
...................
...................
...................
...................

Generation = 2, Population = 0.
...................
...................
...................
...................
...................
...................
...................
...................
...................
...................
...................
...................
...................
...................
...................
...................
...................
...................
...................
...................
...................
...................
...................
...................
...................
...................
...................
...................
...................
...................
...................
...................
...................
...................
...................
...................
...................
...................
...................
...................
...................
...................
...................
...................
...................
...................
...................
...................
...................
...................

Generation = 3, Population = 0.
...................
...................
...................
...................
...................
...................
...................
...................
...................
...................
...................
...................
...................
...................
...................
...................
...................
...................
...................
...................
...................
...................
...................
...................
...................
...................
...................
...................
...................
...................
...................
...................
...................
...................
...................
...................
...................
...................
...................
...................
...................
...................
...................
...................
...................
...................
...................
...................
...................
...................

Generation = 4, Population = 0.
...................
...................
...................
...................
...................
...................
...................
...................
...................
...................
...................
...................
...................
...................
...................
...................
...................
...................
...................
...................
...................
...................
...................
...................
...................
...................
...................
...................
...................
...................
...................
...................
...................
...................
...................
...................
...................
...................
...................
...................
...................
...................
...................
...................
...................
...................
...................
...................
...................
...................

Generation = 5, Population = 0.
...................
...................
...................
...................
...................
...................
...................
...................
...................
...................
...................
...................
...................
...................
...................
...................
...................
...................
...................
...................
...................
...................
...................
...................
...................
...................
...................
...................
...................
...................
...................
...................
...................
...................
...................
...................
...................
...................
...................
...................
...................
...................
...................
...................
...................
...................
...................
...................
...................
...................

*** Life<ConwayCell> 43x1 ***

Generation = 0, Population = 32.
*
.
*
*
*
*
*
*
*
*
*
*
.
.
*
.
.
*
*
*
*
*
*
.
*
*
*
*
*
.
.
.
.
*
*
*
*
*
*
*
.
*
*

Generation = 2, Population = 12.
.
.
.
.
*
*
*
*
*
*
.
.
.
.
.
.
.
.
.
*
*
.
.
.
.
.
*
.
.
.
.
.
.
.
.
*
*
*
.
.
.
.
.

*** Life<ConwayCell> 18x37 ***

Generation = 0, Population = 49.
.*...........*...............*.......
............*...*.....*.........*....
...............*..............*......
*................*....*..............
..*................*..*..............
.*....*..............................
..........................***........
.........*....*........*...........*.
.....................................
.*.....................**............
.................*....*........*.*...
.....................................
.....*.....*.........................
......................*.......*......
.........*............**..........*..
...*.....*...*..*....................
....*.....*....**....................
....................*........*.......

Generation = 3, Population = 17.
.....................................
.....................................
.....................................
.....................................
.....................................
...........................*.........
...........................*.........
...........................*.........
......................***............
......................***............
.....................................
.....................................
.....................................
......................**.............
......................**.............
...............**....................
...............**....................
.....................................

*** Life<ConwayCell> 46x3 ***

Generation = 0, Population = 44.
...
...
...
.*.
...
.**
*..
...
...
...
.*.
.**
.*.
...
...
.**
***
*..
*..
.*.
.*.
.**
...
**.
.*.
.*.
...
...
..*
**.
..*
.**
***
*.*
...
*.*
...
.**
**.
.*.
...
*.*
...
...
.*.
...

*** Life<ConwayCell> 20x47 ***

Generation = 0, Population = 16.
..........*..................*.................
...*...........................................
......*..............*.........................
...............*.......................*.......
.....................................*.........
...............................................
...............................................
...........*.......*...........................
............................................*..
...............................................
...............................................
...............................................
...............................................
...............................................
...............................................
..........*.........*..........................
...............................................
...........................................*...
..........*.....*..............................
...............................................

Generation = 3, Population = 0.
...............................................
...............................................
...............................................
...............................................
...............................................
...............................................
...............................................
...............................................
...............................................
...............................................
...............................................
...............................................
...............................................
...............................................
...............................................
...............................................
...............................................
...............................................
...............................................
...............................................

*** Life<ConwayCell> 9x21 ***

Generation = 0, Population = 19.
.*......*............
.....................
......*..*...........
....*.........*....*.
...............*....*
*.*.........*.*......
..*....*.............
.....*...............
...*...........*...*.

Generation = 2, Population = 3.
.....................
.....................
.....................
..............*......
..............*......
..............*......
.....................
.....................
.....................

*** Life<ConwayCell> 27x21 ***

Generation = 0, Population = 15.
*....................
.....................
.....................
..*..................
.....................
.....................
...*.................
.....................
.....................
.....................
.....................
..........*..........
......*..............
*.........*..........
.........*...........
.............*.......
............*........
..............*......
.....*...........*...
.....................
.....................
.....................
.....................
.....................
.....................
.....................
*.......*............

*** Life<ConwayCell> 36x22 ***

Generation = 0, Population = 8.
..*...................
..................*...
......................
......................
......................
......................
................*.....
......................
..............*.......
......................
......................
.............*........
......................
......................
......................
......................
......................
......................
......................
......................
......................
......................
......................
......*...............
......................
......................
......................
......................
...................*..
......................
...............*......
......................
......................
......................
......................
......................

Generation = 1, Population = 0.
......................
......................
......................
......................
......................
......................
......................
......................
......................
......................
......................
......................
......................
......................
......................
......................
......................
......................
......................
......................
......................
......................
......................
......................
......................
......................
......................
......................
......................
......................
......................
......................
......................
......................
......................
......................

*** Life<ConwayCell> 45x29 ***

Generation = 0, Population = 47.
....*.......*.......*........
.............................
.....................***.....
...............*.............
........*....................
.........*...................
..........................*..
.............................
......................*......
.............................
..................*..........
*.....*......................
.............................
...*..*......................
.............................
.........*...................
*............................
.................**.*........
.............*...............
.............................
...........*.................
.......*.....................
.............................
.............................
.............................
.......................*.....
.............................
.....*...*...................
.......................*.....
*.............*..............
.............................
......*......................
........................*.*..
.................*...........
..........*..................
..........*.................*
.............................
...*.........................
...........*.................
........*....................
..........................*..
..........*...........*......
.*...........................
.........*.................*.
................*............

Generation = 1, Population = 4.
.............................
.....................**......
......................*......
......................*......
.............................
.............................
.............................
.............................
.............................
.............................
.............................
.............................
.............................
.............................
.............................
.............................
.............................
.............................
.............................
.............................
.............................
.............................
.............................
.............................
.............................
.............................
.............................
.............................
.............................
.............................
.............................
.............................
.............................
.............................
.............................
.............................
.............................
.............................
.............................
.............................
.............................
.............................
.............................
.............................
.............................

Generation = 2, Population = 4.
.............................
.....................**......
......................**.....
.............................
.............................
.............................
.............................
.............................
.............................
.............................
.............................
.............................
.............................
.............................
.............................
.............................
.............................
.............................
.............................
.............................
.............................
.............................
.............................
.............................
.............................
.............................
.............................
.............................
.............................
.............................
.............................
.............................
.............................
.............................
.............................
.............................
.............................
.............................
.............................
.............................
.............................
.............................
.............................
.............................
.............................

*** Life<ConwayCell> 16x37 ***

Generation = 0, Population = 16.
..*.................*................
.....................................
...........*.........................
.....................................
*.......................*............
.....................................
.**........................*.........
.................*.........*.........
...*.................................
..................................*..
..........................*..........
.....................................
.....................................
.*...................*...............
................*....................
.....................................

Generation = 2, Population = 0.
.....................................
.....................................
.....................................
.....................................
.....................................
.....................................
.....................................
.....................................
.....................................
.....................................
.....................................
.....................................
.....................................
.....................................
.....................................
.....................................

*** Life<ConwayCell> 30x1 ***

Generation = 0, Population = 20.
*
*
*
*
*
.
*
*
*
*
*
*
*
.
*
.
.
*
.
*
.
.
.
.
*
*
*
*
.
*

Generation = 1, Population = 10.
.
*
*
*
.
.
.
*
*
*
*
*
.
.
.
.
.
.
.
.
.
.
.
.
.
*
*
.
.
.

Generation = 2, Population = 4.
.
.
*
.
.
.
.
.
*
*
*
.
.
.
.
.
.
.
.
.
.
.
.
.
.
.
.
.
.
.

Generation = 3, Population = 1.
.
.
.
.
.
.
.
.
.
*
.
.
.
.
.
.
.
.
.
.
.
.
.
.
.
.
.
.
.
.

Generation = 4, Population = 0.
.
.
.
.
.
.
.
.
.
.
.
.
.
.
.
.
.
.
.
.
.
.
.
.
.
.
.
.
.
.

*** Life<ConwayCell> 43x44 ***

Generation = 0, Population = 43.
................*...............*...........
........*...................................
............................................
......*.....................................
............................................
...................*........................
............................................
............................................
............................................
............................................
.........*..................................
............................................
......................................*.....
....................................*...*...
*...........................................
..*.........................................
...........................*.......*........
*...................*........*........*.....
............................................
............................................
............................................
............................................
..............................*............*
.................................*..*.......
................*...........................
.....*...........*.......................*..
...................*.......................*
.....*.....................*......*.........
............................................
............................................
...*....*.......*.................*.........
............................................
............................................
......*.....................................
..............................*.............
...................................*........
........*..........*........................
............................................
......*...*.................................
............................................
............................................
..................*.........................
......................................*.....

Generation = 1, Population = 0.
............................................
............................................
............................................
............................................
............................................
............................................
............................................
............................................
............................................
............................................
............................................
............................................
............................................
............................................
............................................
............................................
............................................
............................................
............................................
............................................
............................................
............................................
............................................
............................................
............................................
............................................
............................................
............................................
............................................
............................................
............................................
............................................
............................................
............................................
............................................
............................................
............................................
............................................
............................................
............................................
............................................
............................................
............................................

Generation = 2, Population = 0.
............................................
............................................
............................................
............................................
............................................
............................................
............................................
............................................
............................................
............................................
............................................
............................................
............................................
............................................
............................................
............................................
............................................
............................................
............................................
............................................
............................................
............................................
............................................
............................................
............................................
............................................
............................................
............................................
............................................
............................................
............................................
............................................
............................................
............................................
............................................
............................................
............................................
............................................
............................................
............................................
............................................
............................................
............................................

*** Life<ConwayCell> 8x31 ***

Generation = 0, Population = 31.
.....*...*...*.................
...*..**......*...**.**........
*...*.......**..*..............
......*....*...................
...*.*..............*..**......
*....................*.*..*..**
.............*.............*...
...............................

*** Life<ConwayCell> 1x35 ***

Generation = 0, Population = 25.
.***.****.*****.***..*..****.***.**

*** Life<ConwayCell> 24x29 ***

Generation = 0, Population = 7.
.............................
*.............*..............
.............................
.............................
.............................
........................*....
.............................
.....*.......................
.............................
...*.........................
.............................
.............................
.........*...................
.............................
.............................
.............................
.............................
.............................
.............................
.............................
.......*.....................
.............................
.............................
.............................

Generation = 1, Population = 0.
.............................
.............................
.............................
.............................
.............................
.............................
.............................
.............................
.............................
.............................
.............................
.............................
.............................
.............................
.............................
.............................
.............................
.............................
.............................
.............................
.............................
.............................
.............................
.............................

Generation = 2, Population = 0.
.............................
.............................
.............................
.............................
.............................
.............................
.............................
.............................
.............................
.............................
.............................
.............................
.............................
.............................
.............................
.............................
.............................
.............................
.............................
.............................
.............................
.............................
.............................
.............................

*** Life<ConwayCell> 22x39 ***

Generation = 0, Population = 5.
.......................................
.......................................
.......................................
.......................................
.....................................*.
.......................................
....*..................................
.......................................
.......................................
.*.....................................
.......................................
.......................................
.......................................
.......................................
.*.....................................
.......................................
.......................................
.......................................
.......................................
.......................................
*......................................
.......................................

*** Life<ConwayCell> 15x5 ***

Generation = 0, Population = 36.
*..*.
.****
.*..*
..*.*
.****
*.*..
*....
**.**
..**.
...*.
*.**.
**..*
**...
*...*
.**..

Generation = 3, Population = 25.
*.***
.....
**...
.....
..***
...*.
.*..*
***..
.*...
*...*
*...*
.**.*
..**.
.....
.....

*** Life<ConwayCell> 23x34 ***

Generation = 0, Population = 42.
.......*..........................
...........*......................
....*...*.........................
......*.........*.................
.......*....*.....................
*.............*...............*...
....**...........*........*.......
.*.........*......*...............
.....*............................
..........................*....*..
....*......*......................
..................................
.........................*........
...............*..................
...........*..........*..........*
..............*...................
..................................
.......................*..........
.*..............*...........*.....
..*..*.........*............*.....
.....................*..*.........
..*.....................*.........
.................................*

Generation = 1, Population = 3.
..................................
..................................
..................................
.......*..........................
..................................
..................................
..................................
....**............................
..................................
..................................
..................................
..................................
..................................
..................................
..................................
..................................
..................................
..................................
..................................
..................................
..................................
..................................
..................................

Generation = 2, Population = 0.
..................................
..................................
..................................
..................................
..................................
..................................
..................................
..................................
..................................
..................................
..................................
..................................
..................................
..................................
..................................
..................................
..................................
..................................
..................................
..................................
..................................
..................................
..................................

*** Life<ConwayCell> 23x1 ***

Generation = 0, Population = 18.
*
*
.
.
*
*
.
*
*
*
*
*
*
*
.
*
*
.
*
*
*
*
*
