*** Life<FredkinCell> 12x145 ***

Generation = 0, Population = 11.
----------------------------------------------------------------0------------------------------------------------------------0-------------------
-------------------------------------------------------------------------------------------------------------------------------------------------
-------------------------------------------------------------------------------------------------------------------------------------------------
-------------------0----------------------------------------------------------0------------------------------------------------------------------
-------------------------------------------------------------------------------------------------------------------------------------------------
-----------0------------------------------------------0------------------------------------------------------------------------------------------
-------------------------------------------------------------------------------------------------------------------------------------------------
-------------------------------------------------------------------------------------0-------------------0---------------------------------------
------------------------------------------------------------0------------------------------------------------------------------------------------
-------------------------------------------------------------------------------------------------------------------------------------------------
----------------------------------------------------0-----------------0--------------------------------------------------------------------------
-------------------------------------------------------------------------------------------------------------------------------------------------

*** Life<FredkinCell> 8x165 ***

Generation = 0, Population = 8.
---------------------------------------------------------------------------------------------------------------------------------------------------------------------
---------------------------------0-----------------------------------------------------------------------------------------------------------------------------------
----------------------------------------------------------------------------------------------------------------------------------------0----------------------------
---------------------------------------------------------------------------------------------------------------------------------------------------------------------
---------------------------------------------------------------------------------------------------------------------------------------------------------------------
---------------------------------------------------------------------------------------------------------------------------------------------------------------------
--------------------------------0-------------------------------------------------------------------------------------------------------------------------------0----
--------------0--------------------------------------0-----------------0------------------------------0--------------------------------------------------------------

*** Life<FredkinCell> 6x127 ***

Generation = 0, Population = 8.
----------0--------------------------0-----------------------------------------------------------------------------------------
---------0---------------------------------------------------------------------------------------------------------------------
-------------------------------------0-----------------------------------------------------------------------------------------
-------------------------------------------------------------------------------------------------------------------------------
-------------------------------------------------0------------------------0-----------------------------------0----------------
----------------------------------------------------------------------------------------------0--------------------------------

*** Life<FredkinCell> 9x66 ***

Generation = 0, Population = 5.
------------------------------------------------------------------
------------------------------------------------------------------
-----------------------------------------0------------------------
------------------------------------------------------------------
---------------------0--0-----------------------------------------
------------------------------------------------------------------
------------------------------------------------------------------
------------------------------------------------------------------
--------0----------0----------------------------------------------

*** Life<FredkinCell> 9x87 ***

Generation = 0, Population = 13.
---------------------------------------------------------------------------------------
---------------------------0-----------------------------0-------0---------------------
------------------------------------------------------------------------------0--------
-------------------------------------------------------------------0-------------------
-------0-------------------------------------------------------------------------------
---------------------------------------------------------------------------------------
-------------------------------0--------------------------------0----------------------
---------------------------------0------------------------0----------------0-----------
-------------------------------------------------------------------0----0--------------

*** Life<FredkinCell> 12x111 ***

Generation = 0, Population = 9.
-----------------------0----------------------------------------------------0----------------------------------
---------------------------------------------------------------------------------------------------------------
---------------------------------------------------------------------0-----------------------------------------
---------------------------------------------------------------------------------------------------------------
--------------------------------------------------------------0------------------------------------------------
-----------------------------------------0---------------------------------------------------------------------
-----------------------------------------------------------------------------0---------------------------------
---------------------------------------------------------------------------------------------------------------
---------------------------------------------------------------------------------------------------------------
------------------------------------------------------------------0--------------------------------------------
---------------------------------------------------------------------------------------------------------------
------------0----------------0---------------------------------------------------------------------------------

Generation = 22, Population = 371.
-0-0-0-0-0-0-0-------------------3-0-1-0-1-0110-00-0-011100--6----2--2---2-032513--0-021010-000-0-0------------
------0-0-------0-0------0-1-----1-1-0-------0---------0---0----2---1------------------------------------------
---0-0-0-0-0-----------1-----------1-1-2-000--00--10-0-03---5--40-41------204-5---2--2-02-1-2-100--------------
------0-0-0---0-0-0--0-1---0-0-1-0-----1-0-0---0--1--0---1---10---3---1-----------1----------------------------
-----0-0-0-----------2-1-1-----------1-110--0---01--01--0-2--3--3---15--1-10-+301---21----0-110--0-------------
--0-----0-0-010-0--0---2-1--00---1---0-1-0-0----0--11--1---10--12---3---2-------0---0--------------------------
-------0-----------1-2-2-1-2-----------0--0---0---10------21--6-2-2----154--72-13130-------00--0---0-----------
0-0-0-----012210-----2---1002-11-----0-0-0----00--0--21--1---05---3---4-------1---0---0------------------------
-----------------1-0-1---2-0-2--------------0---0----0---10-13--1-1--22235514371--10-0---0---0---0-------------
--0-0-0--0-010-0-1-----31-12020-0--0---0-0--01--001-0--12--0----1---1-------4---1-1-0---0----------------------
-----------------1-0-------0-0----------------1---------0--1--51---11-3101----3-311--------0---0---------------
----0-0110-0-0-1-3-3--1-341-0-0-0-0--0--------0013210-1--0--------1-----------1-1-0-0-0------------------------

Generation = 44, Population = 401.
-----------3---1------10---2-6202----41-13-2-3--4452----3-54-95---7475--2-7-68--44--0-5--4---24-5----1--01----0
----00--14--61--001-22---0---61--42--00--3--0----------------23--36--04--2---1---0------------1---2---0--------
-------3-----------0---6-301---4-33-06---1--52-1-2--1521-64----6-36-6-3-94--++--42--+5---02------14-22----3-2--
-0--21--------2-----371-----------3-----1----4--1-----1--3-------28-----------1-------------------2------------
-------2---1---3--01---2--24-----2122----22-34-1----1-00-----64074---99-35--+---3-2--7--1-0------22-3----2--32-
1-------43---56-55---52-032------53--3--055--4--1--------15--5---1+--2---24--1-------0----2-------1-------1----
---1---------------4-------5-40--0-2-3--14------13-1--5--2-4-6+-7----73-79---9--61------2----02--1------01---00
01---1--2-3-4---131-----342--45-----4-2-----0----4--26----1--56------25--31-------------------2-------1--------
---0-------0---0------0--------3-----21-1-------1--0-----152------3-7+---8----------5-4--------------00-0-----2
----62--2-2-3---230-953--34--94-----344--1--1-6--3--133------56--23--05--4----5--0----3-------2-------0-------1
-------4-------0---2---2---2---3-2----------12---11--263--2------27-659-036-98--5---2------------0-------0--1--
-3--2-2-44--0-1-2---675--44---1-444-----1-2--2--35---5--241---3--56--24--45--0------------0-------0-------0----

Generation = 66, Population = 116.
-----0----0-5-5----------------------+-9-7--------------------------------------5-7-34-8-----------------------
----------6---5------------5---2--------------------------------4-+-4------------------------------------------
0--0---4----4--------------------------6-------------------------------------+----8--------6----6--------------
------------9--------+-------6-----------5----------------------6-+-3------------------------------------0-----
0-1--7-------3------------------------------------------------+------------5-+-5-0-------6----7---3------------
-------------------4---6---------------2-9-3----------------------+------------------------------------2---0---
0----------3---4--------------------------------------------+-+-9----+-----+-+-----4------------8--------------
--5------------------6-----------------3-4-5------------------------------------------------2------------0-----
-------------4---------8------------------------------------9-+-3--6-+-7----++---6-----------------------------
1---+----------------------------7-------3--------+-------------------------+-------------3--23----------------
---------------------5---5------------------------------------+----8-9-5--+---8--------------------------------
--5----------------------------3-+-7------------8-9-7---------------------8-7-3------------132-1---------------

*** Life<FredkinCell> 8x159 ***

Generation = 0, Population = 8.
---------------------------------------------------------------------------------------------------------------------------------------------------------------
----------------------------------------------0----------------------------------------------------------------------0-----------------------------------------
----------------------------------------------------------------------------0----------------------------------------------------------------------------------
-------------------------------------------------------------------------------------------------------------------------0-------------------------------------
-------------------------------------------------------------------------------------------------------------------------0-------------------------------------
-----------------------------------------------------------------------------------------------------------------------------------------0---------------------
------------------0--------------------------------------------------------------------------------------------------------------------------------------------
----------------------------------------------------------------------------------------------------------------------------------------------------------0----

*** Life<FredkinCell> 10x79 ***

Generation = 0, Population = 5.
------------------------------------------------------0------------------------
-----------------------------------0-------------------------------------------
-------------------------------------------------------------------------------
-------------------------------------------------------------------------------
-------------------------------------------------------------------------------
-------------------------------------------------------------------------------
-------------------------------------------------------------------------------
-------------------------------------------------------------------------------
-------------------------0---------------------0-------------------------------
----------------------------------------0--------------------------------------

*** Life<FredkinCell> 11x186 ***

Generation = 0, Population = 14.
-------------------------------------------------------------------------------------------------------------------------------------------------------------------0----------------------
-------------------------------------------------------------------------------0----------------------------------------------------------------------------------------------------------
-------------------------------------------------------------------0-----0----------------------------------------------------------------------------------------------------------------
------------------------------------------------------------------------------------------------------------------------------------------------------------------------------------------
----------0------------------------------------------------------------------------------------------0---------------------------0--------------------------------------------------------
-------------------0-------------------------------------------------------------------0--------------------------------------------------------------------------------------------------
--------------------------------------------------------------------------------------------------------------------------------------------------------------------------0---------------
---------------0--------------------------------------------------------------------------------------------------------------------------------------------------------------------------
-----------0-----------------------------------------------------------------------------------------------------------------------------------------0-----------0------------------------
------------------------------------------------------------------------------------------------------------------------------------------------------------------------------------------
------------------------------------------------------------------------------------------------------------------------------------------------------------------------------------------

*** Life<FredkinCell> 16x55 ***

Generation = 0, Population = 10.
---------------------0---------------------------------
-------------------------------------------------------
-------------------------------------------------------
---------------------------------0---------------------
--------------------0----------------------------------
---------0---------------------------------------------
-------------------------------------------------------
-----------------------------------------0-------------
-------------------------------------------------------
-------------------------------------------------------
--------------0-------0--------------------------------
-0---------0-------------------------------------------
-----------------------------0-------------------------
-------------------------------------------------------
-------------------------------------------------------
-------------------------------------------------------

*** Life<FredkinCell> 7x27 ***

Generation = 0, Population = 12.
------0--------------------
---------------------------
------0--------0----------0
---0-----0--------0-0------
--------------------------0
0---0------------------0---
---------------------------

*** Life<FredkinCell> 7x23 ***

Generation = 0, Population = 19.
------------0----------
---------0----0------0-
----0------------0--00-
------0----------0---0-
0------0----0-0---0---0
--------------0--------
-----------------0-----

Generation = 66, Population = 64.
+++--7---+---+--5-+----
+4+--+-0++-1-++---++--+
+------+4---6-6+--+---+
------+--+8----4----++4
+-+---+-+---3-+--------
+++--8--++---++---+---+
06-+--+8+--7+++8--+----

*** Life<FredkinCell> 11x124 ***

Generation = 0, Population = 20.
-------------------------------------0--------------------------------------------------------------------------------------
---------------------------------------------------0----------------------------0----------------------------------------0--
-------------------------0-------------------------------------------------0------------------------------------------------
------------------------0----------------------0---------------0------------------------------------------------------------
-------------------------------------0--------------------------------------------------0-0---------------------------------
--------------------------------------------------------------0-------------------------------------------------------------
-----------------------------------------0-----------------------------0-----------------------------------0----------------
----------------------------------------------------------------------------------------------------------------------------
-----------------------------------------------------------------------------------------------------------------0----------
-----------0-----------------------------------------------------------------------------------0----------------------------
------------------------------------------------------------------------------------------------------------------------0---

*** Life<FredkinCell> 7x21 ***

Generation = 0, Population = 14.
--0--------0-0----0--
-----------------0---
-------------0-------
--0------------------
-----------0---------
---0----0---------0--
----------0-0-----0--

*** Life<FredkinCell> 10x31 ***

Generation = 0, Population = 7.
-------------------------------
-----------------------0-------
------0------------------------
-------------------------------
-------------------------------
----------------0--------------
-------------------------------
-------------------------------
-0-----------------------------
-0---0---------0---------------

*** Life<FredkinCell> 10x173 ***

Generation = 0, Population = 10.
---------------------------------------------0-----0---------------------------------------0-------------------------------------------------------------------------------0-
---------------------------------------------------------------------------------------0-------------------------------------------------------------------------------------
------------0--------0-------------------------------------------------------------------------------------------------------------------------------------------------------
-----------------------------------------------------------------------------------------------------------------------------------------------------------------------------
-----------------------------------------------------------------------------------------------------------------------------------------------------------------------------
-----------------0-----------------------------------------------------------------------------------------------------------------------------------------------------------
----------------------------------0------------------------------------------------------------------------------------------------------------------------------------------
-----------------------------------------------------------------------------------------------------------------------------------------------------------------------------
---------------------------------------------------------------------------------------------------------0-------------------------------------------------------------------
-----------------------------------------------------------------------------------------------------------------------------------------------------------------------------

Generation = 52, Population = 341.
485---2525--65--3858-4---6--5-85-7---44-----42-5---7-5---2-52-24-8---33--2---2-3---3-3-----8-5-4-2-------------5-----1-5-1---1-0---1---0-1-0-----------0---0---0---0-------0-
-------------5---+---5-------3-----4---1---3---------------------4-5---2---3-------8-------8-------4---6---5-----------------------1---2---0---------------------------------
6--7--7-86--4---84+6-+--4+--4---3332-7--4--5-6543-++--2544-5-7--1119-1-----6------13-1-8-2-+---3---5-3---4-4-3-------2---2---1-0-----2---1---0-0-----------0---0-------0-----
-5---5-----------------------3-------2-------------3---4---3-----------0-----------2---7---3-----------2-----------0---2---0-------------------------------------------------
-644-4--------45-94---73----4--------2-----25-3------624-5-----5---------3-----1-4-----7-----3-----2-3---4---0---------2---3-----------1-------0---0-----0-------------------
-------------+---8-------6-------3-----6---------4-----------4-------3-------------5---9---6-------------------------------------------1-------------------------------------
133--53--2--5-37-----8985---4---33---3------7978-+8+-55-----4--4-------------216-4----1--3-1---4-----2---2---0---------1-3-----3-----0-0-0-0-0-0---0-------------------0-----
-4-----------5-------------------1---------------6-1---6---0-------1---2---2-------3---8---7-------5---3---1-------0---1---1-------------------------------------------------
-4------5---1-6-95-5-94-1---77532-3+-92336--8---082------5-2--13-346--2----2-2-4---4-4---7---3-------1-3---1-0-2-----2---3-3-0-------------0---0-----0-0-0---0-----0---------
---------3-------5-----------1---------------3-------2-2---------3-4---1---3-----------------------2---3---4-----------3-----------------------------------------------------

*** Life<FredkinCell> 20x93 ***

Generation = 0, Population = 9.
-------0-------------------------------------------------------------------------------------
---------------------------------------------------------------------------------------------
---------------------0----------------------------0------------------------------------------
---------------------------------------------------------------------------------------------
---------------------------------------------------------------------------------------------
---------------------------------------------------------------------------------------------
------------------------------------------------0--------------------------------------------
---------------0-----------------------------------------------------------------------------
---------------------------------------------------------------------------------------------
---------------------------------------------------------------------------------------------
-----------------------------------------------------------------------------------0---------
---------------------------------------------------------------------------------------------
---------------------------------------------------------------------------------------------
---------------------------------------------------------------------------------------------
--------------------------------------------------------------------------------------0------
---------------------------------------------------------------------------------------------
---------------------------------------------------------------------------------------------
---------------------------------------------------------------------------------------------
------------------0--------------------------------------------0-----------------------------
---------------------------------------------------------------------------------------------

*** Life<FredkinCell> 17x199 ***

Generation = 0, Population = 14.
-------------------------------------------------------------------------------------------------------------------------------------------------------------------------------------------------------
-----------------------------------------------------0-------------------------------------------------------------------------------------------------------------------------------------------------
-------------------------------------------------------------------------------------------------------------------------------------------------------------------------------------------------------
-------------------------------------------------------------0-----------------------------------------------------------------------------------------------------------------0------------0----------
-------0------------------------------------------------------------------------------------------------------------------------------0----------------------------------------------------------------
----------------------------------------------------------------------------------------------------------0--------------------------------------------------------------------------------------------
-------------------------------------------------------------------------------------------------------------------------------------------------------------------------------------------------------
-------------------------------------------------------------------------------------------------0-----------------------------------------------------------------------------------------------------
-------------------------------------------------------------------------------------------------------------------------------------------------------------------------------------------------------
-----------------0---------------------------------------------------------------------------------------0---------------------------------------------------------------------------------------------
--------0----------------------------------------------------------------------------------------------------------------------------------------------------------------------------------------------
-------------------------------------------------------------------------------------------------------------------------------------------------------------------------------------------------------
-------------------------------------------------------------------------------------------------------------------------------------------------------------------------------------------------------
-----------------------------------------------------------------------------------------------------------------------------------------------------------0-------------------------------------------
-------------------------------------------------------------------------------------------------------------------------------------------------------------------------------------------------------
--0--------------------------------------------------------------------------------------------------------------------------------------------------0-------------------------------------------------
-------------------------------------------------------------------------------------------------------------------------------------------------------------------------------------------------------

*** Life<FredkinCell> 6x153 ***

Generation = 0, Population = 6.
---------------------------------------------------------------------------------------------------------------------------------------------------------
---------------------------------------------------------------------------0-------------------------------------------------------------------------0---
-------------0-------------------------------------------------------------------------------------------------------------------------------------------
--------------------------------------------------0------------------------------------------------------------------------------------------------------
------------------------------------------------------------------------0--------------------------------------------------------------------------------
----0----------------------------------------------------------------------------------------------------------------------------------------------------

*** Life<FredkinCell> 5x22 ***

Generation = 0, Population = 5.
---0-----------0------
----------------------
--------0---0---------
---0------------------
----------------------

Generation = 67, Population = 64.
+-+----++-8+-----+9+++
-3-+-30--60+0-01-605-9
--+--++--+8++-++--8-++
06-8-------905050---05
++++++++----+++++++--+

*** Life<FredkinCell> 12x116 ***

Generation = 0, Population = 15.
-------------------------------------------------------------------------------0------0----------------0------------
--------------------------------------------------------------------------------------------------------------------
--------------------------------------------------------------------------------------------------------------------
--------------------------------------------------------------------------------------------------------------------
------------------------------------------0-------------------------------------------------------------------------
----------------------------------------------------------------------------------------------------------------0---
---------------0----------------------------------------------------------------------------------------------------
--------------------------------------------------------------------------------------------------------------------
--------------------------------------------------------------------------------------------------------0-----------
--------0----------------------------------------------------------------------------0------------------------------
------------------------0----------------------------------0--------------------------------------------------------
---0--------------------------0--------------0-----------------------------------------0----------------------------

*** Life<FredkinCell> 13x157 ***

Generation = 0, Population = 9.
-------------------------------------------------------------------------------------------------------------------------------------------------------------
---------------------------------------------------------------------------------------------------------------------------------------------------------0---
------------------------------------------------------------------------------------------------------------------------0------------------------------------
--------------------------0----------------------------------------------------------------------------------------------------------------------------------
-------------------------------------------------------------------------------------------------------------------------------------------------------------
-------------------------------------------------------------------------------------------------------------------------------------------------------------
-------------------------------------------------------------------------------------------------------------------------------------------------------------
-------------------------------------------------------------------------------------------------------0-----------------------------------------------------
---------------------------------------------------0---------------------------------------------------------------------------------------------------------
------------------------------------------------------------------------------------------------------------------------------0------------------------------
-------------------------------------------------------------------------------------------------------------0-----------------------------------------------
---------------------------0---------------------------------------------------------------------------------------------------------------------------------
-------------------0-----------------------------------------------------------------------------------------------------------------------------------------

Generation = 50, Population = 289.
---------0---0---0-3-0--------------------------------------------------0--1-0-2---1------------------2---41---3----------------------1---00-0-2--2----------
---0------1---------0-----3---------------1----------------1-----------0--0------------0----0---1----------2---1---0---1---------------3------------------4-3
---------2-5-1---------------------0-------------------------------0--0---2------2---1----------------3-4-44---5--------2-------------1-1-2-----2---0--------
-1---2--3---2-----5---0-5---7-----------1---2------------1---1-------0--01--0--------0---2-----------1--------2--5---0---0----2------1--------2--1-------0---
-----------2-----1---3-----------2---2-------------2-------------0---0--0--0---1-------------4-------------0-6-2------2---4--2-------------0---1--0----------
---11------2--------0------4---------------1-----------0--12--------------0-----------------1---0-----------1---0-----------2---3------2---42--33--2------222
-------------------7---------------2-------------1---0-----------------------2---0---1--1--4---0---4--1---1----------------3---1------2---3--5----------0----
--4---1-13--61----------36--64----------42--30-------0--24--2--------2---2----0------1---2----0------1---1-----------1-----------0---1------0----2---3------0
---1-------------------------------1-------------------------1---1---0-------------0--1---0------2---3--5--4---4------0-9-1-------------3-------------0---0--
----------11-------4------33--------------11-----------0---------------4---20---0---------------------------1---1------2---03--44--1---5--0-1-0-4------4-----
-0-3-1---------------------8-----1---2-----------2---1-----2---1---2-----------------------4-3-4---4---------2--------1---42-2-2-----------------------------
--2---3----------2---2----------------------------------0---0------------4---10------2---4-----------4---3----1------1--------3--3----------0-0--------------
-2---3-------------------1-5-1-----2---------------5---------0------------------------1-0-23---1----------------------2---14---1----------------------1-0-1--

*** Life<FredkinCell> 13x49 ***

Generation = 0, Population = 7.
------------0----------0-------------------------
-------------------------------------------------
-------------------------------------------------
-------------------------------------------------
-----------------0-------------------------------
-------------------------------------------------
------------------------------------0----0-------
-------------------------------------------------
-------------------------------------------------
-------------------------------------------------
-----0-------------0-----------------------------
-------------------------------------------------
-------------------------------------------------
